<?xml version="1.0" encoding="UTF-8" standalone="no"?>
<!-- Created with Inkscape (http://www.inkscape.org/) -->

<svg
   xmlns:dc="http://purl.org/dc/elements/1.1/"
   xmlns:cc="http://creativecommons.org/ns#"
   xmlns:rdf="http://www.w3.org/1999/02/22-rdf-syntax-ns#"
   xmlns:svg="http://www.w3.org/2000/svg"
   xmlns="http://www.w3.org/2000/svg"
   xmlns:sodipodi="http://sodipodi.sourceforge.net/DTD/sodipodi-0.dtd"
   xmlns:inkscape="http://www.inkscape.org/namespaces/inkscape"
   width="1114.4496mm"
   height="361.72327mm"
   viewBox="0 0 1114.4496 361.72327"
   version="1.1"
   id="svg7781"
   inkscape:version="0.92.1 r15371"
   sodipodi:docname="braiding.svg"
   inkscape:export-filename="/home/tobias/Documents/projects/2018/braid/braiding.png"
   inkscape:export-xdpi="70"
   inkscape:export-ydpi="70">
  <defs
     id="defs7775">
    <marker
       inkscape:stockid="Arrow2Mend"
       orient="auto"
       refY="0"
       refX="0"
       id="Arrow2Mend"
       style="overflow:visible"
       inkscape:isstock="true">
      <path
         id="path10790"
         style="fill:#6760a8;fill-opacity:1;fill-rule:evenodd;stroke:#6760a8;stroke-width:0.625;stroke-linejoin:round;stroke-opacity:1"
         d="M 8.7185878,4.0337352 -2.2072895,0.01601326 8.7185884,-4.0017078 c -1.7454984,2.3720609 -1.7354408,5.6174519 -6e-7,8.035443 z"
         transform="scale(-0.6)"
         inkscape:connector-curvature="0" />
    </marker>
    <marker
       inkscape:stockid="Arrow2Mend"
       orient="auto"
       refY="0"
       refX="0"
       id="Arrow2Mend-3-3"
       style="overflow:visible"
       inkscape:isstock="true">
      <path
         inkscape:connector-curvature="0"
         id="path10790-4-9"
         style="fill:#6760a8;fill-opacity:1;fill-rule:evenodd;stroke:#6760a8;stroke-width:0.625;stroke-linejoin:round;stroke-opacity:1"
         d="M 8.7185878,4.0337352 -2.2072895,0.01601326 8.7185884,-4.0017078 c -1.7454984,2.3720609 -1.7354408,5.6174519 -6e-7,8.035443 z"
         transform="scale(-0.6)" />
    </marker>
    <marker
       inkscape:stockid="Arrow2Mend"
       orient="auto"
       refY="0"
       refX="0"
       id="Arrow2Mend-3-9"
       style="overflow:visible"
       inkscape:isstock="true">
      <path
         inkscape:connector-curvature="0"
         id="path10790-4-6"
         style="fill:#6760a8;fill-opacity:1;fill-rule:evenodd;stroke:#6760a8;stroke-width:0.625;stroke-linejoin:round;stroke-opacity:1"
         d="M 8.7185878,4.0337352 -2.2072895,0.01601326 8.7185884,-4.0017078 c -1.7454984,2.3720609 -1.7354408,5.6174519 -6e-7,8.035443 z"
         transform="scale(-0.6)" />
    </marker>
  </defs>
  <sodipodi:namedview
     id="base"
     pagecolor="#ffffff"
     bordercolor="#666666"
     borderopacity="1.0"
     inkscape:pageopacity="1"
     inkscape:pageshadow="2"
     inkscape:zoom="0.16265528"
     inkscape:cx="1933.4236"
     inkscape:cy="238.39247"
     inkscape:document-units="mm"
     inkscape:current-layer="layer1"
     showgrid="false"
     fit-margin-top="10"
     fit-margin-left="10"
     fit-margin-right="10"
     fit-margin-bottom="10"
     inkscape:window-width="1600"
     inkscape:window-height="835"
     inkscape:window-x="0"
     inkscape:window-y="0"
     inkscape:window-maximized="1" />
  <metadata
     id="metadata7778">
    <rdf:RDF>
      <cc:Work
         rdf:about="">
        <dc:format>image/svg+xml</dc:format>
        <dc:type
           rdf:resource="http://purl.org/dc/dcmitype/StillImage" />
        <dc:title></dc:title>
      </cc:Work>
    </rdf:RDF>
  </metadata>
  <g
     inkscape:label="Ebene 1"
     inkscape:groupmode="layer"
     id="layer1"
     transform="translate(713.33387,447.6282)">
    <g
       id="g8826"
       transform="translate(-222.82762,-77.349261)">
      <circle
         style="opacity:1;fill:none;fill-opacity:0.99227798;stroke:#000000;stroke-width:1.05833328;stroke-linecap:butt;stroke-linejoin:bevel;stroke-miterlimit:4;stroke-dasharray:none;stroke-opacity:1;paint-order:stroke fill markers"
         id="path4954"
         cx="-76.155205"
         cy="-141.03627"
         r="116.9174" />
      <path
         sodipodi:type="star"
         style="opacity:1;fill:none;fill-opacity:0.99227798;stroke:#000000;stroke-width:2.82222223;stroke-linecap:butt;stroke-linejoin:bevel;stroke-miterlimit:4;stroke-dasharray:none;stroke-opacity:1;paint-order:stroke fill markers"
         id="path4979"
         sodipodi:sides="8"
         sodipodi:cx="-76.155205"
         sodipodi:cy="-141.03627"
         sodipodi:r1="115.88142"
         sodipodi:r2="1.1058184"
         sodipodi:arg1="0.37875089"
         sodipodi:arg2="0.77144996"
         inkscape:flatsided="false"
         inkscape:rounded="0"
         inkscape:randomized="0"
         d="m 31.513375,-98.187937 -106.875818,-42.077383 45.042074,105.660579 -45.819412,-105.325819 -42.863759,106.562869 42.077386,-106.875819 -105.660576,45.042076 105.325814,-45.819416 -106.562864,-42.86375 106.875813,42.07738 -45.042073,-105.66058 45.819412,105.32582 42.863756,-106.56287 -42.077383,106.87582 105.66058,-45.04208 -105.325819,45.81942 z"
         inkscape:transform-center-x="3.2943903e-06" />
      <circle
         style="opacity:1;fill:#ffffff;fill-opacity:0.99227798;stroke:#000000;stroke-width:1.05833328;stroke-linecap:butt;stroke-linejoin:bevel;stroke-miterlimit:4;stroke-dasharray:none;stroke-opacity:1;paint-order:stroke fill markers"
         id="path4954-6"
         cx="-76.155205"
         cy="-141.03627"
         r="42.168968" />
      <g
         id="g6163-7"
         transform="translate(-471.88631,-475.314)">
        <text
           xml:space="preserve"
           style="font-style:normal;font-weight:normal;font-size:10.58333302px;line-height:125%;font-family:Sans;letter-spacing:0px;word-spacing:0px;fill:#000000;fill-opacity:1;stroke:none;stroke-width:0.26458332px;stroke-linecap:butt;stroke-linejoin:miter;stroke-opacity:1"
           x="343.2684"
           y="222.36963"
           id="text5142-3-6-7-7"><tspan
             sodipodi:role="line"
             id="tspan5140-67-1-22-67"
             x="343.2684"
             y="222.36963"
             style="stroke-width:0.26458332px">0</tspan></text>
        <text
           xml:space="preserve"
           style="font-style:normal;font-weight:normal;font-size:10.58333302px;line-height:125%;font-family:Sans;letter-spacing:0px;word-spacing:0px;fill:#000000;fill-opacity:1;stroke:none;stroke-width:0.26458332px;stroke-linecap:butt;stroke-linejoin:miter;stroke-opacity:1"
           x="439.06363"
           y="220.83075"
           id="text5142-3-6-7-6-3"><tspan
             sodipodi:role="line"
             id="tspan5140-67-1-22-1-6"
             x="439.06363"
             y="220.83075"
             style="stroke-width:0.26458332px">1</tspan></text>
        <text
           xml:space="preserve"
           style="font-style:normal;font-weight:normal;font-size:10.58333302px;line-height:125%;font-family:Sans;letter-spacing:0px;word-spacing:0px;fill:#000000;fill-opacity:1;stroke:none;stroke-width:0.26458332px;stroke-linecap:butt;stroke-linejoin:miter;stroke-opacity:1"
           x="507.54379"
           y="287.772"
           id="text5142-3-6-7-0-5"><tspan
             sodipodi:role="line"
             id="tspan5140-67-1-22-6-6"
             x="507.54379"
             y="287.772"
             style="stroke-width:0.26458332px">2</tspan></text>
        <text
           xml:space="preserve"
           style="font-style:normal;font-weight:normal;font-size:10.58333302px;line-height:125%;font-family:Sans;letter-spacing:0px;word-spacing:0px;fill:#000000;fill-opacity:1;stroke:none;stroke-width:0.26458332px;stroke-linecap:butt;stroke-linejoin:miter;stroke-opacity:1"
           x="508.31323"
           y="383.56723"
           id="text5142-3-6-7-1-3"><tspan
             sodipodi:role="line"
             id="tspan5140-67-1-22-5-9"
             x="508.31323"
             y="383.56723"
             style="stroke-width:0.26458332px">3</tspan></text>
        <text
           xml:space="preserve"
           style="font-style:normal;font-weight:normal;font-size:10.58333302px;line-height:125%;font-family:Sans;letter-spacing:0px;word-spacing:0px;fill:#000000;fill-opacity:1;stroke:none;stroke-width:0.26458332px;stroke-linecap:butt;stroke-linejoin:miter;stroke-opacity:1"
           x="439.8331"
           y="455.12512"
           id="text5142-3-6-7-9-4"><tspan
             sodipodi:role="line"
             id="tspan5140-67-1-22-4-8"
             x="439.8331"
             y="455.12512"
             style="stroke-width:0.26458332px">4</tspan></text>
        <text
           xml:space="preserve"
           style="font-style:normal;font-weight:normal;font-size:10.58333302px;line-height:125%;font-family:Sans;letter-spacing:0px;word-spacing:0px;fill:#000000;fill-opacity:1;stroke:none;stroke-width:0.26458332px;stroke-linecap:butt;stroke-linejoin:miter;stroke-opacity:1"
           x="347.1156"
           y="453.97095"
           id="text5142-3-6-7-90-1"><tspan
             sodipodi:role="line"
             id="tspan5140-67-1-22-9-2"
             x="347.1156"
             y="453.97095"
             style="stroke-width:0.26458332px">5</tspan></text>
        <text
           xml:space="preserve"
           style="font-style:normal;font-weight:normal;font-size:10.58333302px;line-height:125%;font-family:Sans;letter-spacing:0px;word-spacing:0px;fill:#000000;fill-opacity:1;stroke:none;stroke-width:0.26458332px;stroke-linecap:butt;stroke-linejoin:miter;stroke-opacity:1"
           x="277.48135"
           y="387.41443"
           id="text5142-3-6-7-17-9"><tspan
             sodipodi:role="line"
             id="tspan5140-67-1-22-7-3"
             x="277.48135"
             y="387.41443"
             style="stroke-width:0.26458332px">6</tspan></text>
        <text
           xml:space="preserve"
           style="font-style:normal;font-weight:normal;font-size:10.58333302px;line-height:125%;font-family:Sans;letter-spacing:0px;word-spacing:0px;fill:#000000;fill-opacity:1;stroke:none;stroke-width:0.26458332px;stroke-linecap:butt;stroke-linejoin:miter;stroke-opacity:1"
           x="276.32715"
           y="292.77335"
           id="text5142-3-6-7-11-9"><tspan
             sodipodi:role="line"
             id="tspan5140-67-1-22-59-0"
             x="276.32715"
             y="292.77335"
             style="stroke-width:0.26458332px">7</tspan></text>
      </g>
    </g>
    <g
       id="g8853"
       transform="translate(-813.3254,-39.808021)">
      <circle
         style="opacity:1;fill:none;fill-opacity:0.99227798;stroke:#000000;stroke-width:1.05833328;stroke-linecap:butt;stroke-linejoin:bevel;stroke-miterlimit:4;stroke-dasharray:none;stroke-opacity:1;paint-order:stroke fill markers"
         id="path4954-18"
         cx="228.78033"
         cy="-180.57124"
         r="116.9174" />
      <path
         sodipodi:type="star"
         style="opacity:1;fill:none;fill-opacity:0.99227798;stroke:#000000;stroke-width:2.82222223;stroke-linecap:butt;stroke-linejoin:bevel;stroke-miterlimit:4;stroke-dasharray:none;stroke-opacity:1;paint-order:stroke fill markers"
         id="path4979-7"
         sodipodi:sides="8"
         sodipodi:cx="228.78036"
         sodipodi:cy="-180.57124"
         sodipodi:r1="115.88142"
         sodipodi:r2="1.1058184"
         sodipodi:arg1="0.37875089"
         sodipodi:arg2="0.77144996"
         inkscape:flatsided="false"
         inkscape:rounded="0"
         inkscape:randomized="0"
         d="m 336.44894,-137.72291 -106.87581,-42.07738 45.04207,105.660576 -45.81941,-105.325816 -42.86376,106.562866 42.07739,-106.875816 -105.66058,45.04207 105.32581,-45.81941 -106.56286,-42.86376 106.87581,42.07739 -45.04207,-105.66058 45.81941,105.32582 42.86376,-106.56287 -42.07739,106.87581 105.66058,-45.04207 -105.32581,45.81941 z"
         inkscape:transform-center-x="3.2943903e-06" />
      <circle
         style="opacity:1;fill:#ffffff;fill-opacity:0.99227798;stroke:#000000;stroke-width:2.82222223;stroke-linecap:butt;stroke-linejoin:bevel;stroke-miterlimit:4;stroke-dasharray:none;stroke-opacity:1;paint-order:stroke fill markers"
         id="path4954-6-92"
         cx="228.78033"
         cy="-180.57124"
         r="42.168968" />
      <circle
         style="opacity:1;fill:#ffffff;fill-opacity:0.99227798;stroke:none;stroke-width:2.82222223;stroke-linecap:butt;stroke-linejoin:bevel;stroke-miterlimit:4;stroke-dasharray:none;stroke-opacity:1;paint-order:stroke fill markers"
         id="path4954-6-92-0"
         cx="228.89246"
         cy="-180.28658"
         r="91.079384" />
      <path
         style="fill:none;fill-rule:evenodd;stroke:#000000;stroke-width:2.82222223;stroke-linecap:butt;stroke-linejoin:miter;stroke-miterlimit:4;stroke-dasharray:none;stroke-opacity:1"
         d="m 192.25466,-265.67953 c 19.3833,44.20527 53.27322,42.0332 70.28882,0.24886"
         id="path4840"
         inkscape:connector-curvature="0"
         sodipodi:nodetypes="cc" />
      <path
         style="fill:none;fill-rule:evenodd;stroke:#000000;stroke-width:2.82222223;stroke-linecap:butt;stroke-linejoin:miter;stroke-miterlimit:4;stroke-dasharray:none;stroke-opacity:1"
         d="m 265.01942,-95.995891 c -19.3833,-44.205279 -52.97498,-41.436739 -69.99057,0.34761"
         id="path4840-2"
         inkscape:connector-curvature="0"
         sodipodi:nodetypes="cc" />
      <path
         style="fill:none;fill-rule:evenodd;stroke:#000000;stroke-width:2.82222223;stroke-linecap:butt;stroke-linejoin:miter;stroke-miterlimit:4;stroke-dasharray:none;stroke-opacity:1"
         d="m 312.44622,-216.79573 c -44.20526,19.38329 -40.54202,52.82588 1.24232,69.84147"
         id="path4840-3"
         inkscape:connector-curvature="0"
         sodipodi:nodetypes="cc" />
      <path
         style="fill:none;fill-rule:evenodd;stroke:#000000;stroke-width:2.82222223;stroke-linecap:butt;stroke-linejoin:miter;stroke-miterlimit:4;stroke-dasharray:none;stroke-opacity:1"
         d="m 143.88116,-143.88481 c 44.20526,-19.38329 42.03319,-53.27323 0.24884,-70.28882"
         id="path4840-3-7"
         inkscape:connector-curvature="0"
         sodipodi:nodetypes="cc" />
      <g
         id="g6163-8"
         transform="translate(-167.20378,-512.85524)">
        <text
           xml:space="preserve"
           style="font-style:normal;font-weight:normal;font-size:10.58333302px;line-height:125%;font-family:Sans;letter-spacing:0px;word-spacing:0px;fill:#000000;fill-opacity:1;stroke:none;stroke-width:0.26458332px;stroke-linecap:butt;stroke-linejoin:miter;stroke-opacity:1"
           x="343.2684"
           y="222.36963"
           id="text5142-3-6-7-8"><tspan
             sodipodi:role="line"
             id="tspan5140-67-1-22-50"
             x="343.2684"
             y="222.36963"
             style="stroke-width:0.26458332px">0</tspan></text>
        <text
           xml:space="preserve"
           style="font-style:normal;font-weight:normal;font-size:10.58333302px;line-height:125%;font-family:Sans;letter-spacing:0px;word-spacing:0px;fill:#000000;fill-opacity:1;stroke:none;stroke-width:0.26458332px;stroke-linecap:butt;stroke-linejoin:miter;stroke-opacity:1"
           x="439.06363"
           y="220.83075"
           id="text5142-3-6-7-6-9"><tspan
             sodipodi:role="line"
             id="tspan5140-67-1-22-1-63"
             x="439.06363"
             y="220.83075"
             style="stroke-width:0.26458332px">1</tspan></text>
        <text
           xml:space="preserve"
           style="font-style:normal;font-weight:normal;font-size:10.58333302px;line-height:125%;font-family:Sans;letter-spacing:0px;word-spacing:0px;fill:#000000;fill-opacity:1;stroke:none;stroke-width:0.26458332px;stroke-linecap:butt;stroke-linejoin:miter;stroke-opacity:1"
           x="507.54379"
           y="287.772"
           id="text5142-3-6-7-0-8"><tspan
             sodipodi:role="line"
             id="tspan5140-67-1-22-6-5"
             x="507.54379"
             y="287.772"
             style="stroke-width:0.26458332px">2</tspan></text>
        <text
           xml:space="preserve"
           style="font-style:normal;font-weight:normal;font-size:10.58333302px;line-height:125%;font-family:Sans;letter-spacing:0px;word-spacing:0px;fill:#000000;fill-opacity:1;stroke:none;stroke-width:0.26458332px;stroke-linecap:butt;stroke-linejoin:miter;stroke-opacity:1"
           x="508.31323"
           y="383.56723"
           id="text5142-3-6-7-1-6"><tspan
             sodipodi:role="line"
             id="tspan5140-67-1-22-5-1"
             x="508.31323"
             y="383.56723"
             style="stroke-width:0.26458332px">3</tspan></text>
        <text
           xml:space="preserve"
           style="font-style:normal;font-weight:normal;font-size:10.58333302px;line-height:125%;font-family:Sans;letter-spacing:0px;word-spacing:0px;fill:#000000;fill-opacity:1;stroke:none;stroke-width:0.26458332px;stroke-linecap:butt;stroke-linejoin:miter;stroke-opacity:1"
           x="439.8331"
           y="455.12512"
           id="text5142-3-6-7-9-1"><tspan
             sodipodi:role="line"
             id="tspan5140-67-1-22-4-5"
             x="439.8331"
             y="455.12512"
             style="stroke-width:0.26458332px">4</tspan></text>
        <text
           xml:space="preserve"
           style="font-style:normal;font-weight:normal;font-size:10.58333302px;line-height:125%;font-family:Sans;letter-spacing:0px;word-spacing:0px;fill:#000000;fill-opacity:1;stroke:none;stroke-width:0.26458332px;stroke-linecap:butt;stroke-linejoin:miter;stroke-opacity:1"
           x="347.1156"
           y="453.97095"
           id="text5142-3-6-7-90-9"><tspan
             sodipodi:role="line"
             id="tspan5140-67-1-22-9-8"
             x="347.1156"
             y="453.97095"
             style="stroke-width:0.26458332px">5</tspan></text>
        <text
           xml:space="preserve"
           style="font-style:normal;font-weight:normal;font-size:10.58333302px;line-height:125%;font-family:Sans;letter-spacing:0px;word-spacing:0px;fill:#000000;fill-opacity:1;stroke:none;stroke-width:0.26458332px;stroke-linecap:butt;stroke-linejoin:miter;stroke-opacity:1"
           x="277.48135"
           y="387.41443"
           id="text5142-3-6-7-17-4"><tspan
             sodipodi:role="line"
             id="tspan5140-67-1-22-7-8"
             x="277.48135"
             y="387.41443"
             style="stroke-width:0.26458332px">6</tspan></text>
        <text
           xml:space="preserve"
           style="font-style:normal;font-weight:normal;font-size:10.58333302px;line-height:125%;font-family:Sans;letter-spacing:0px;word-spacing:0px;fill:#000000;fill-opacity:1;stroke:none;stroke-width:0.26458332px;stroke-linecap:butt;stroke-linejoin:miter;stroke-opacity:1"
           x="276.32715"
           y="292.77335"
           id="text5142-3-6-7-11-1"><tspan
             sodipodi:role="line"
             id="tspan5140-67-1-22-59-03"
             x="276.32715"
             y="292.77335"
             style="stroke-width:0.26458332px">7</tspan></text>
      </g>
    </g>
    <g
       id="g8940"
       transform="translate(-296.64661,-343.94649)">
      <circle
         style="opacity:1;fill:#ffffff;fill-opacity:0.99227798;stroke:#000000;stroke-width:1.05833328;stroke-linecap:butt;stroke-linejoin:bevel;stroke-miterlimit:4;stroke-dasharray:none;stroke-opacity:1;paint-order:stroke fill markers"
         id="path4954-6-9-3"
         cx="283.60999"
         cy="124.78799"
         r="42.168968" />
      <g
         id="g5191"
         transform="translate(-466.29156,-211.8581)">
        <path
           sodipodi:nodetypes="cc"
           inkscape:connector-curvature="0"
           id="path5004-2"
           d="m 764.61577,296.70755 c 12.49501,-27.18978 64.08773,5.31804 91.71733,-5.89633"
           style="fill:none;fill-rule:evenodd;stroke:#000000;stroke-width:2.82222223;stroke-linecap:butt;stroke-linejoin:miter;stroke-miterlimit:4;stroke-dasharray:none;stroke-opacity:1" />
        <path
           sodipodi:nodetypes="cc"
           inkscape:connector-curvature="0"
           id="path5002-3-0"
           d="m 788.99929,319.82984 c 28.99696,-12.20668 -10.95258,-57.205 3.7506,-90.85237"
           style="fill:none;fill-rule:evenodd;stroke:#ffffff;stroke-width:7.76111126;stroke-linecap:butt;stroke-linejoin:miter;stroke-miterlimit:4;stroke-dasharray:none;stroke-opacity:1" />
        <path
           sodipodi:nodetypes="cc"
           inkscape:connector-curvature="0"
           id="path5002-6"
           d="m 788.99929,319.82984 c 28.99696,-12.20668 -10.95258,-57.205 3.7506,-90.85237"
           style="fill:none;fill-rule:evenodd;stroke:#000000;stroke-width:2.82222223;stroke-linecap:butt;stroke-linejoin:miter;stroke-miterlimit:4;stroke-dasharray:none;stroke-opacity:1" />
      </g>
      <circle
         style="opacity:1;fill:none;fill-opacity:0.99227798;stroke:#000000;stroke-width:1.05833328;stroke-linecap:butt;stroke-linejoin:bevel;stroke-miterlimit:4;stroke-dasharray:none;stroke-opacity:1;paint-order:stroke fill markers"
         id="path4954-1-1"
         cx="283.60999"
         cy="124.78799"
         r="116.9174" />
      <g
         transform="rotate(180,516.75577,230.717)"
         id="g5191-6">
        <path
           sodipodi:nodetypes="cc"
           inkscape:connector-curvature="0"
           id="path5004-2-5"
           d="m 764.61577,296.70755 c 12.49501,-27.18978 64.08773,5.31804 91.71733,-5.89633"
           style="fill:none;fill-rule:evenodd;stroke:#000000;stroke-width:2.82222223;stroke-linecap:butt;stroke-linejoin:miter;stroke-miterlimit:4;stroke-dasharray:none;stroke-opacity:1" />
        <path
           sodipodi:nodetypes="cc"
           inkscape:connector-curvature="0"
           id="path5002-3-0-6"
           d="m 788.99929,319.82984 c 28.99696,-12.20668 -10.95258,-57.205 3.7506,-90.85237"
           style="fill:none;fill-rule:evenodd;stroke:#ffffff;stroke-width:7.76111126;stroke-linecap:butt;stroke-linejoin:miter;stroke-miterlimit:4;stroke-dasharray:none;stroke-opacity:1" />
        <path
           sodipodi:nodetypes="cc"
           inkscape:connector-curvature="0"
           id="path5002-6-9"
           d="m 788.99929,319.82984 c 28.99696,-12.20668 -10.95258,-57.205 3.7506,-90.85237"
           style="fill:none;fill-rule:evenodd;stroke:#000000;stroke-width:2.82222223;stroke-linecap:butt;stroke-linejoin:miter;stroke-miterlimit:4;stroke-dasharray:none;stroke-opacity:1" />
      </g>
      <g
         transform="rotate(90,622.68483,-2.4287922)"
         id="g5191-3">
        <path
           sodipodi:nodetypes="cc"
           inkscape:connector-curvature="0"
           id="path5004-2-7"
           d="m 764.61577,296.70755 c 12.49501,-27.18978 64.08773,5.31804 91.71733,-5.89633"
           style="fill:none;fill-rule:evenodd;stroke:#000000;stroke-width:2.82222223;stroke-linecap:butt;stroke-linejoin:miter;stroke-miterlimit:4;stroke-dasharray:none;stroke-opacity:1" />
        <path
           sodipodi:nodetypes="cc"
           inkscape:connector-curvature="0"
           id="path5002-3-0-4"
           d="m 788.99929,319.82984 c 28.99696,-12.20668 -10.95258,-57.205 3.7506,-90.85237"
           style="fill:none;fill-rule:evenodd;stroke:#ffffff;stroke-width:7.76111126;stroke-linecap:butt;stroke-linejoin:miter;stroke-miterlimit:4;stroke-dasharray:none;stroke-opacity:1" />
        <path
           sodipodi:nodetypes="cc"
           inkscape:connector-curvature="0"
           id="path5002-6-5"
           d="m 788.99929,319.82984 c 28.99696,-12.20668 -10.95258,-57.205 3.7506,-90.85237"
           style="fill:none;fill-rule:evenodd;stroke:#000000;stroke-width:2.82222223;stroke-linecap:butt;stroke-linejoin:miter;stroke-miterlimit:4;stroke-dasharray:none;stroke-opacity:1" />
      </g>
      <g
         transform="rotate(-90,410.82673,463.86279)"
         id="g5191-3-2">
        <path
           sodipodi:nodetypes="cc"
           inkscape:connector-curvature="0"
           id="path5004-2-7-5"
           d="m 764.61577,296.70755 c 12.49501,-27.18978 64.08773,5.31804 91.71733,-5.89633"
           style="fill:none;fill-rule:evenodd;stroke:#000000;stroke-width:2.82222223;stroke-linecap:butt;stroke-linejoin:miter;stroke-miterlimit:4;stroke-dasharray:none;stroke-opacity:1" />
        <path
           sodipodi:nodetypes="cc"
           inkscape:connector-curvature="0"
           id="path5002-3-0-4-4"
           d="m 788.99929,319.82984 c 28.99696,-12.20668 -10.95258,-57.205 3.7506,-90.85237"
           style="fill:none;fill-rule:evenodd;stroke:#ffffff;stroke-width:7.76111126;stroke-linecap:butt;stroke-linejoin:miter;stroke-miterlimit:4;stroke-dasharray:none;stroke-opacity:1" />
        <path
           sodipodi:nodetypes="cc"
           inkscape:connector-curvature="0"
           id="path5002-6-5-7"
           d="m 788.99929,319.82984 c 28.99696,-12.20668 -10.95258,-57.205 3.7506,-90.85237"
           style="fill:none;fill-rule:evenodd;stroke:#000000;stroke-width:2.82222223;stroke-linecap:butt;stroke-linejoin:miter;stroke-miterlimit:4;stroke-dasharray:none;stroke-opacity:1" />
      </g>
      <g
         id="g6163-0"
         transform="translate(-112.25209,-208.71677)">
        <text
           xml:space="preserve"
           style="font-style:normal;font-weight:normal;font-size:10.58333302px;line-height:125%;font-family:Sans;letter-spacing:0px;word-spacing:0px;fill:#000000;fill-opacity:1;stroke:none;stroke-width:0.26458332px;stroke-linecap:butt;stroke-linejoin:miter;stroke-opacity:1"
           x="343.2684"
           y="222.36963"
           id="text5142-3-6-7-4"><tspan
             sodipodi:role="line"
             id="tspan5140-67-1-22-44"
             x="343.2684"
             y="222.36963"
             style="stroke-width:0.26458332px">0</tspan></text>
        <text
           xml:space="preserve"
           style="font-style:normal;font-weight:normal;font-size:10.58333302px;line-height:125%;font-family:Sans;letter-spacing:0px;word-spacing:0px;fill:#000000;fill-opacity:1;stroke:none;stroke-width:0.26458332px;stroke-linecap:butt;stroke-linejoin:miter;stroke-opacity:1"
           x="439.06363"
           y="220.83075"
           id="text5142-3-6-7-6-4"><tspan
             sodipodi:role="line"
             id="tspan5140-67-1-22-1-7"
             x="439.06363"
             y="220.83075"
             style="stroke-width:0.26458332px">1</tspan></text>
        <text
           xml:space="preserve"
           style="font-style:normal;font-weight:normal;font-size:10.58333302px;line-height:125%;font-family:Sans;letter-spacing:0px;word-spacing:0px;fill:#000000;fill-opacity:1;stroke:none;stroke-width:0.26458332px;stroke-linecap:butt;stroke-linejoin:miter;stroke-opacity:1"
           x="507.54379"
           y="287.772"
           id="text5142-3-6-7-0-6"><tspan
             sodipodi:role="line"
             id="tspan5140-67-1-22-6-3"
             x="507.54379"
             y="287.772"
             style="stroke-width:0.26458332px">2</tspan></text>
        <text
           xml:space="preserve"
           style="font-style:normal;font-weight:normal;font-size:10.58333302px;line-height:125%;font-family:Sans;letter-spacing:0px;word-spacing:0px;fill:#000000;fill-opacity:1;stroke:none;stroke-width:0.26458332px;stroke-linecap:butt;stroke-linejoin:miter;stroke-opacity:1"
           x="508.31323"
           y="383.56723"
           id="text5142-3-6-7-1-1"><tspan
             sodipodi:role="line"
             id="tspan5140-67-1-22-5-7"
             x="508.31323"
             y="383.56723"
             style="stroke-width:0.26458332px">3</tspan></text>
        <text
           xml:space="preserve"
           style="font-style:normal;font-weight:normal;font-size:10.58333302px;line-height:125%;font-family:Sans;letter-spacing:0px;word-spacing:0px;fill:#000000;fill-opacity:1;stroke:none;stroke-width:0.26458332px;stroke-linecap:butt;stroke-linejoin:miter;stroke-opacity:1"
           x="439.8331"
           y="455.12512"
           id="text5142-3-6-7-9-5"><tspan
             sodipodi:role="line"
             id="tspan5140-67-1-22-4-9"
             x="439.8331"
             y="455.12512"
             style="stroke-width:0.26458332px">4</tspan></text>
        <text
           xml:space="preserve"
           style="font-style:normal;font-weight:normal;font-size:10.58333302px;line-height:125%;font-family:Sans;letter-spacing:0px;word-spacing:0px;fill:#000000;fill-opacity:1;stroke:none;stroke-width:0.26458332px;stroke-linecap:butt;stroke-linejoin:miter;stroke-opacity:1"
           x="347.1156"
           y="453.97095"
           id="text5142-3-6-7-90-6"><tspan
             sodipodi:role="line"
             id="tspan5140-67-1-22-9-21"
             x="347.1156"
             y="453.97095"
             style="stroke-width:0.26458332px">5</tspan></text>
        <text
           xml:space="preserve"
           style="font-style:normal;font-weight:normal;font-size:10.58333302px;line-height:125%;font-family:Sans;letter-spacing:0px;word-spacing:0px;fill:#000000;fill-opacity:1;stroke:none;stroke-width:0.26458332px;stroke-linecap:butt;stroke-linejoin:miter;stroke-opacity:1"
           x="277.48135"
           y="387.41443"
           id="text5142-3-6-7-17-7"><tspan
             sodipodi:role="line"
             id="tspan5140-67-1-22-7-85"
             x="277.48135"
             y="387.41443"
             style="stroke-width:0.26458332px">6</tspan></text>
        <text
           xml:space="preserve"
           style="font-style:normal;font-weight:normal;font-size:10.58333302px;line-height:125%;font-family:Sans;letter-spacing:0px;word-spacing:0px;fill:#000000;fill-opacity:1;stroke:none;stroke-width:0.26458332px;stroke-linecap:butt;stroke-linejoin:miter;stroke-opacity:1"
           x="276.32715"
           y="292.77335"
           id="text5142-3-6-7-11-7"><tspan
             sodipodi:role="line"
             id="tspan5140-67-1-22-59-4"
             x="276.32715"
             y="292.77335"
             style="stroke-width:0.26458332px">7</tspan></text>
      </g>
    </g>
    <g
       id="g9020"
       transform="translate(-14.639889,-608.3674)">
      <circle
         style="opacity:1;fill:#ffffff;fill-opacity:0.99227798;stroke:#000000;stroke-width:1.05833328;stroke-linecap:butt;stroke-linejoin:bevel;stroke-miterlimit:4;stroke-dasharray:none;stroke-opacity:1;paint-order:stroke fill markers"
         id="path4954-6-9-3-5"
         cx="477.29364"
         cy="-82.877602"
         r="42.168968"
         transform="matrix(0.72300046,0.69084755,0.69084755,-0.72300046,0,0)" />
      <g
         transform="matrix(0.72300047,0.69084756,0.69084756,-0.72300047,-486.92263,114.98523)"
         id="g5191-9">
        <path
           sodipodi:nodetypes="cc"
           inkscape:connector-curvature="0"
           id="path5004-2-2"
           d="m 764.61577,296.70755 c 12.49501,-27.18978 64.08773,5.31804 91.71733,-5.89633"
           style="fill:none;fill-rule:evenodd;stroke:#000000;stroke-width:2.82222223;stroke-linecap:butt;stroke-linejoin:miter;stroke-miterlimit:4;stroke-dasharray:none;stroke-opacity:1" />
        <path
           sodipodi:nodetypes="cc"
           inkscape:connector-curvature="0"
           id="path5002-3-0-2"
           d="m 788.99929,319.82984 c 28.99696,-12.20668 -10.95258,-57.205 3.7506,-90.85237"
           style="fill:none;fill-rule:evenodd;stroke:#ffffff;stroke-width:7.76111126;stroke-linecap:butt;stroke-linejoin:miter;stroke-miterlimit:4;stroke-dasharray:none;stroke-opacity:1" />
        <path
           sodipodi:nodetypes="cc"
           inkscape:connector-curvature="0"
           id="path5002-6-8"
           d="m 788.99929,319.82984 c 28.99696,-12.20668 -10.95258,-57.205 3.7506,-90.85237"
           style="fill:none;fill-rule:evenodd;stroke:#000000;stroke-width:2.82222223;stroke-linecap:butt;stroke-linejoin:miter;stroke-miterlimit:4;stroke-dasharray:none;stroke-opacity:1" />
      </g>
      <circle
         style="opacity:1;fill:none;fill-opacity:0.99227798;stroke:#000000;stroke-width:1.05833328;stroke-linecap:butt;stroke-linejoin:bevel;stroke-miterlimit:4;stroke-dasharray:none;stroke-opacity:1;paint-order:stroke fill markers"
         id="path4954-1-1-9"
         cx="468.36221"
         cy="-123.75232"
         r="116.9174"
         transform="matrix(0.77991449,0.62588608,0.62588608,-0.77991449,0,0)" />
      <g
         transform="matrix(-0.72300047,-0.69084756,-0.69084756,0.72300047,1062.5779,664.33003)"
         id="g5191-6-7">
        <path
           sodipodi:nodetypes="cc"
           inkscape:connector-curvature="0"
           id="path5004-2-5-3"
           d="m 764.61577,296.70755 c 12.49501,-27.18978 64.08773,5.31804 91.71733,-5.89633"
           style="fill:none;fill-rule:evenodd;stroke:#000000;stroke-width:2.82222223;stroke-linecap:butt;stroke-linejoin:miter;stroke-miterlimit:4;stroke-dasharray:none;stroke-opacity:1" />
        <path
           sodipodi:nodetypes="cc"
           inkscape:connector-curvature="0"
           id="path5002-3-0-6-6"
           d="m 788.99929,319.82984 c 28.99696,-12.20668 -10.95258,-57.205 3.7506,-90.85237"
           style="fill:none;fill-rule:evenodd;stroke:#ffffff;stroke-width:7.76111126;stroke-linecap:butt;stroke-linejoin:miter;stroke-miterlimit:4;stroke-dasharray:none;stroke-opacity:1" />
        <path
           sodipodi:nodetypes="cc"
           inkscape:connector-curvature="0"
           id="path5002-6-9-1"
           d="m 788.99929,319.82984 c 28.99696,-12.20668 -10.95258,-57.205 3.7506,-90.85237"
           style="fill:none;fill-rule:evenodd;stroke:#000000;stroke-width:2.82222223;stroke-linecap:butt;stroke-linejoin:miter;stroke-miterlimit:4;stroke-dasharray:none;stroke-opacity:1" />
      </g>
      <g
         transform="matrix(0.69084756,-0.72300047,-0.72300047,-0.69084756,13.155196,1164.4079)"
         id="g5191-3-29">
        <path
           sodipodi:nodetypes="cc"
           inkscape:connector-curvature="0"
           id="path5004-2-7-3"
           d="m 764.61577,296.70755 c 12.49501,-27.18978 64.08773,5.31804 91.71733,-5.89633"
           style="fill:none;fill-rule:evenodd;stroke:#000000;stroke-width:2.82222223;stroke-linecap:butt;stroke-linejoin:miter;stroke-miterlimit:4;stroke-dasharray:none;stroke-opacity:1" />
        <path
           sodipodi:nodetypes="cc"
           inkscape:connector-curvature="0"
           id="path5002-3-0-4-1"
           d="m 788.99929,319.82984 c 28.99696,-12.20668 -10.95258,-57.205 3.7506,-90.85237"
           style="fill:none;fill-rule:evenodd;stroke:#ffffff;stroke-width:7.76111126;stroke-linecap:butt;stroke-linejoin:miter;stroke-miterlimit:4;stroke-dasharray:none;stroke-opacity:1" />
        <path
           sodipodi:nodetypes="cc"
           inkscape:connector-curvature="0"
           id="path5002-6-5-9"
           d="m 788.99929,319.82984 c 28.99696,-12.20668 -10.95258,-57.205 3.7506,-90.85237"
           style="fill:none;fill-rule:evenodd;stroke:#000000;stroke-width:2.82222223;stroke-linecap:butt;stroke-linejoin:miter;stroke-miterlimit:4;stroke-dasharray:none;stroke-opacity:1" />
      </g>
      <g
         transform="matrix(-0.69084756,0.72300047,0.72300047,0.69084756,562.50004,-385.09262)"
         id="g5191-3-2-4">
        <path
           sodipodi:nodetypes="cc"
           inkscape:connector-curvature="0"
           id="path5004-2-7-5-7"
           d="m 764.61577,296.70755 c 12.49501,-27.18978 64.08773,5.31804 91.71733,-5.89633"
           style="fill:none;fill-rule:evenodd;stroke:#000000;stroke-width:2.82222223;stroke-linecap:butt;stroke-linejoin:miter;stroke-miterlimit:4;stroke-dasharray:none;stroke-opacity:1" />
        <path
           sodipodi:nodetypes="cc"
           inkscape:connector-curvature="0"
           id="path5002-3-0-4-4-8"
           d="m 788.99929,319.82984 c 28.99696,-12.20668 -10.95258,-57.205 3.7506,-90.85237"
           style="fill:none;fill-rule:evenodd;stroke:#ffffff;stroke-width:7.76111126;stroke-linecap:butt;stroke-linejoin:miter;stroke-miterlimit:4;stroke-dasharray:none;stroke-opacity:1" />
        <path
           sodipodi:nodetypes="cc"
           inkscape:connector-curvature="0"
           id="path5002-6-5-7-4"
           d="m 788.99929,319.82984 c 28.99696,-12.20668 -10.95258,-57.205 3.7506,-90.85237"
           style="fill:none;fill-rule:evenodd;stroke:#000000;stroke-width:2.82222223;stroke-linecap:butt;stroke-linejoin:miter;stroke-miterlimit:4;stroke-dasharray:none;stroke-opacity:1" />
      </g>
      <g
         id="g6163-1"
         transform="translate(-108.44358,55.704139)">
        <text
           xml:space="preserve"
           style="font-style:normal;font-weight:normal;font-size:10.58333302px;line-height:125%;font-family:Sans;letter-spacing:0px;word-spacing:0px;fill:#000000;fill-opacity:1;stroke:none;stroke-width:0.26458332px;stroke-linecap:butt;stroke-linejoin:miter;stroke-opacity:1"
           x="343.2684"
           y="222.36963"
           id="text5142-3-6-7-85"><tspan
             sodipodi:role="line"
             id="tspan5140-67-1-22-97"
             x="343.2684"
             y="222.36963"
             style="stroke-width:0.26458332px">0</tspan></text>
        <text
           xml:space="preserve"
           style="font-style:normal;font-weight:normal;font-size:10.58333302px;line-height:125%;font-family:Sans;letter-spacing:0px;word-spacing:0px;fill:#000000;fill-opacity:1;stroke:none;stroke-width:0.26458332px;stroke-linecap:butt;stroke-linejoin:miter;stroke-opacity:1"
           x="439.06363"
           y="220.83075"
           id="text5142-3-6-7-6-5"><tspan
             sodipodi:role="line"
             id="tspan5140-67-1-22-1-3"
             x="439.06363"
             y="220.83075"
             style="stroke-width:0.26458332px">1</tspan></text>
        <text
           xml:space="preserve"
           style="font-style:normal;font-weight:normal;font-size:10.58333302px;line-height:125%;font-family:Sans;letter-spacing:0px;word-spacing:0px;fill:#000000;fill-opacity:1;stroke:none;stroke-width:0.26458332px;stroke-linecap:butt;stroke-linejoin:miter;stroke-opacity:1"
           x="507.54379"
           y="287.772"
           id="text5142-3-6-7-0-88"><tspan
             sodipodi:role="line"
             id="tspan5140-67-1-22-6-31"
             x="507.54379"
             y="287.772"
             style="stroke-width:0.26458332px">2</tspan></text>
        <text
           xml:space="preserve"
           style="font-style:normal;font-weight:normal;font-size:10.58333302px;line-height:125%;font-family:Sans;letter-spacing:0px;word-spacing:0px;fill:#000000;fill-opacity:1;stroke:none;stroke-width:0.26458332px;stroke-linecap:butt;stroke-linejoin:miter;stroke-opacity:1"
           x="508.31323"
           y="383.56723"
           id="text5142-3-6-7-1-8"><tspan
             sodipodi:role="line"
             id="tspan5140-67-1-22-5-96"
             x="508.31323"
             y="383.56723"
             style="stroke-width:0.26458332px">3</tspan></text>
        <text
           xml:space="preserve"
           style="font-style:normal;font-weight:normal;font-size:10.58333302px;line-height:125%;font-family:Sans;letter-spacing:0px;word-spacing:0px;fill:#000000;fill-opacity:1;stroke:none;stroke-width:0.26458332px;stroke-linecap:butt;stroke-linejoin:miter;stroke-opacity:1"
           x="439.8331"
           y="455.12512"
           id="text5142-3-6-7-9-43"><tspan
             sodipodi:role="line"
             id="tspan5140-67-1-22-4-3"
             x="439.8331"
             y="455.12512"
             style="stroke-width:0.26458332px">4</tspan></text>
        <text
           xml:space="preserve"
           style="font-style:normal;font-weight:normal;font-size:10.58333302px;line-height:125%;font-family:Sans;letter-spacing:0px;word-spacing:0px;fill:#000000;fill-opacity:1;stroke:none;stroke-width:0.26458332px;stroke-linecap:butt;stroke-linejoin:miter;stroke-opacity:1"
           x="347.1156"
           y="453.97095"
           id="text5142-3-6-7-90-3"><tspan
             sodipodi:role="line"
             id="tspan5140-67-1-22-9-86"
             x="347.1156"
             y="453.97095"
             style="stroke-width:0.26458332px">5</tspan></text>
        <text
           xml:space="preserve"
           style="font-style:normal;font-weight:normal;font-size:10.58333302px;line-height:125%;font-family:Sans;letter-spacing:0px;word-spacing:0px;fill:#000000;fill-opacity:1;stroke:none;stroke-width:0.26458332px;stroke-linecap:butt;stroke-linejoin:miter;stroke-opacity:1"
           x="277.48135"
           y="387.41443"
           id="text5142-3-6-7-17-0"><tspan
             sodipodi:role="line"
             id="tspan5140-67-1-22-7-4"
             x="277.48135"
             y="387.41443"
             style="stroke-width:0.26458332px">6</tspan></text>
        <text
           xml:space="preserve"
           style="font-style:normal;font-weight:normal;font-size:10.58333302px;line-height:125%;font-family:Sans;letter-spacing:0px;word-spacing:0px;fill:#000000;fill-opacity:1;stroke:none;stroke-width:0.26458332px;stroke-linecap:butt;stroke-linejoin:miter;stroke-opacity:1"
           x="276.32715"
           y="292.77335"
           id="text5142-3-6-7-11-8"><tspan
             sodipodi:role="line"
             id="tspan5140-67-1-22-59-8"
             x="276.32715"
             y="292.77335"
             style="stroke-width:0.26458332px">7</tspan></text>
      </g>
    </g>
    <path
       style="fill:none;fill-rule:evenodd;stroke:#6760a8;stroke-width:10;stroke-linecap:butt;stroke-linejoin:miter;stroke-miterlimit:4;stroke-dasharray:none;stroke-opacity:1;marker-end:url(#Arrow2Mend)"
       d="M 274.07749,-356.32761 V -432.6282 H -12.471784 v 73.47464"
       id="path10761"
       inkscape:connector-curvature="0" />
    <path
       style="fill:none;fill-rule:evenodd;stroke:#6760a8;stroke-width:10;stroke-linecap:butt;stroke-linejoin:miter;stroke-miterlimit:4;stroke-dasharray:none;stroke-opacity:1;marker-end:url(#Arrow2Mend-3-3)"
       d="m -207.89175,-123.84764 90.37039,0.19051"
       id="path10761-0-1"
       inkscape:connector-curvature="0"
       sodipodi:nodetypes="cc" />
    <path
       style="fill:none;fill-rule:evenodd;stroke:#6760a8;stroke-width:10;stroke-linecap:butt;stroke-linejoin:miter;stroke-miterlimit:4;stroke-dasharray:none;stroke-opacity:1;marker-end:url(#Arrow2Mend-3-9)"
       d="m 78.398784,-123.84764 90.370386,0.19051"
       id="path10761-0-9"
       inkscape:connector-curvature="0"
       sodipodi:nodetypes="cc" />
    <text
       xml:space="preserve"
       style="font-style:normal;font-weight:normal;font-size:15.45567322px;line-height:125%;font-family:Sans;letter-spacing:0px;word-spacing:0px;fill:#6760a8;fill-opacity:1;stroke:none;stroke-width:0.38639182px;stroke-linecap:butt;stroke-linejoin:miter;stroke-opacity:1"
       x="-471.81427"
       y="-100.64375"
       id="text16613"><tspan
         sodipodi:role="line"
         id="tspan16611"
         x="-471.81427"
         y="-100.64375"
         style="font-size:74.18723297px;fill:#6760a8;fill-opacity:1;stroke-width:0.38639182px">=</tspan></text>
    <text
       xml:space="preserve"
       style="font-style:normal;font-weight:normal;font-size:10.58333302px;line-height:125%;font-family:Sans;letter-spacing:0px;word-spacing:0px;fill:#6760a8;fill-opacity:1;stroke:none;stroke-width:0.26458332px;stroke-linecap:butt;stroke-linejoin:miter;stroke-opacity:1"
       x="67.458511"
       y="-385.20868"
       id="text16617"><tspan
         sodipodi:role="line"
         id="tspan16615"
         x="67.458511"
         y="-385.20868"
         style="font-size:50.79999924px;fill:#6760a8;fill-opacity:1;stroke-width:0.26458332px">2-3 ×</tspan></text>
  </g>
</svg>
