<?xml version="1.0" encoding="UTF-8" standalone="no"?>
<svg
   xmlns:dc="http://purl.org/dc/elements/1.1/"
   xmlns:cc="http://creativecommons.org/ns#"
   xmlns:rdf="http://www.w3.org/1999/02/22-rdf-syntax-ns#"
   xmlns:svg="http://www.w3.org/2000/svg"
   xmlns="http://www.w3.org/2000/svg"
   style="enable-background:new"
   id="svg8"
   version="1.1"
   viewBox="0 0 233.62155 197.4151"
   height="197.4151mm"
   width="233.62155mm">
  <defs
     id="defs2" />
  <metadata
     id="metadata5">
    <rdf:RDF>
      <cc:Work
         rdf:about="">
        <dc:format>image/svg+xml</dc:format>
        <dc:type
           rdf:resource="http://purl.org/dc/dcmitype/StillImage" />
        <dc:title></dc:title>
      </cc:Work>
    </rdf:RDF>
  </metadata>
  <g
     transform="translate(25.4485,-11.321197)"
     id="layer2">
    <path
       id="path1435"
       d="m 79.375,131.72852 c -11.177119,0.66419 -22.448555,1.10326 -33.404373,3.60383 -2.782312,0.72118 -4.980998,2.75562 -6.795677,4.89244 -1.285803,1.50894 -2.74352,3.09724 -4.749951,3.56971 -1.576578,0.39843 -3.158848,-0.42875 -4.25703,-1.5152 -0.639059,-0.58113 -1.094356,-1.41061 -1.964908,-1.68414 -1.21342,-0.47183 -2.564696,-0.18708 -3.702514,0.35648 -6.753168,2.57856 -13.424814,5.51412 -20.5162122,7.05632 -4.20545979,0.64077 -8.5209122,-0.60481 -12.6792926,0.50616 -1.9384942,0.531 -3.8732542,1.50057 -5.9366292,1.16676 -1.0313,-0.21283 -2.095711,-0.5879 -3.149663,-0.27072 -1.403766,0.42949 -2.265646,1.84355 -2.558594,3.21289 -0.429683,2.05699 0.432984,4.38189 2.269674,5.47657 1.606079,1.03644 3.738963,1.0973 5.43991,0.25388 3.4164216,-1.15249 6.791833,-2.70858 10.4526124,-2.84192 6.417969,-0.56088 12.8177226,0.5745 19.1053676,1.74028 3.659123,0.72329 7.397113,1.53368 10.642592,3.45322 0.903031,0.60965 1.018145,1.85393 0.663639,2.80624 -0.414728,1.17504 -1.378786,2.0226 -2.020502,3.06571 -2.572587,3.65723 -5.218694,7.38818 -6.572659,11.6985 -0.600297,2.41871 0.769329,5.00088 2.849307,6.24537 3.807521,2.76176 7.263644,6.09937 11.570326,8.1012 1.523992,0.6535 3.321271,0.50017 4.750734,-0.32251 1.823914,-0.98316 3.182171,-2.59386 4.794414,-3.86235 4.904167,-4.21236 10.019108,-8.35794 16.000279,-10.94429 4.880965,-2.09636 10.237471,-3.01775 15.538681,-2.84061 1.800554,0.69061 2.693964,2.79964 2.427735,4.63086 -0.103576,5.07633 1.181614,10.26999 4.103155,14.46565 1.377607,1.87453 3.545928,3.17213 5.880573,3.3517 2.167048,0.23124 4.34825,-0.41156 6.205214,-1.50879 3.996001,-1.96595 7.610502,-4.60672 11.125392,-7.31767 2.80326,-2.37022 4.94064,-5.4399 6.52954,-8.72992 1.40608,-2.48546 3.28439,-4.90471 5.98153,-6.05354 1.88086,-0.85975 4.23346,-0.7514 5.91557,0.505 2.52546,1.53631 4.74068,3.58721 7.48391,4.75601 4.04217,2.11629 8.43808,3.48087 12.89982,4.37923 3.30291,0.87337 6.70413,1.98235 9.26787,4.34179 1.85239,1.73224 2.54352,4.29445 2.90552,6.72182 0.25752,2.11409 0.8703,4.34288 2.4918,5.83015 1.53509,1.60603 3.41969,2.94654 5.55688,3.60263 2.72562,0.5741 5.61196,-1.18404 6.59274,-3.74406 0.53699,-1.39935 0.65363,-2.9108 0.96427,-4.36772 0.62479,-3.72613 1.01814,-7.51612 0.81872,-11.29672 -0.19688,-3.13995 -0.88591,-6.21909 -1.4061,-9.31275 -0.13116,-1.68565 0.47658,-3.5885 2.01741,-4.46472 2.03629,-1.30135 4.51391,-1.45403 6.76695,-2.17996 6.03704,-1.59101 12.16117,-3.29737 17.53428,-6.57606 2.26962,-1.39871 4.5489,-3.07849 5.75748,-5.52599 0.74861,-2.08889 -0.60974,-4.53333 -2.65469,-5.25144 -1.95908,-0.8769 -3.9881,-1.58597 -5.95796,-2.43715 -9.20201,-3.59237 -18.90631,-5.60024 -28.53031,-7.69047 -8.47284,-2.05773 -16.63899,-5.39666 -25.31728,-6.57546 -15.32284,-1.38354 -30.70341,-2.00006 -46.08032,-2.37286 -5.015746,-0.0912 -10.032699,-0.12836 -15.04923,-0.10338 z"
       style="opacity:0.19100001;fill:#4d4d4d;fill-opacity:1;stroke:none;stroke-width:0;stroke-linecap:round;stroke-linejoin:bevel;stroke-miterlimit:4;stroke-dasharray:none;stroke-dashoffset:0;stroke-opacity:1;paint-order:markers stroke fill" />
    <path
       id="path840"
       d="m 94.985094,26.153351 c -8.810841,1.725601 -14.535083,4.915535 -25.072671,9.840668 -6.945577,3.331404 -12.146832,9.896381 -14.116166,17.310519 -1.862277,6.217775 -2.515677,12.70059 -3.411042,19.104999 -0.838774,6.971727 -1.656564,13.955581 -1.992448,20.972268 0.172686,4.928911 1.924394,9.593905 3.173229,14.312715 0.876155,3.88282 1.118351,8.06861 -0.301193,11.85607 -1.192934,2.95122 -3.682706,5.14903 -6.335115,6.78925 -2.547079,1.89796 -3.961386,4.82334 -5.608409,7.45172 -1.775694,2.75235 -3.953551,5.44581 -6.993059,6.84867 -4.42416,2.11397 -9.866829,1.68637 -14.030185,-0.84442 -4.094246,-1.90596 -8.131798,-4.18903 -12.6566694,-4.88109 -6.1542888,-0.73572 -12.4551003,1.47421 -17.1480059,5.44347 -3.4755267,2.71059 -6.6495817,6.00927 -8.4308597,10.09689 -0.284733,1.10232 1.325439,2.02735 2.130859,1.21875 2.878381,-1.92533 5.670191,-4.0047 8.7698356,-5.57188 4.4586315,-2.41047 9.3493129,-4.21489 14.4421328,-4.53887 3.4779996,0.009 6.7197246,1.54203 9.6457486,3.29104 4.994507,2.77253 9.735094,6.14042 15.218455,7.9115 2.359405,0.61051 4.790177,-0.18495 6.933315,-1.15923 2.948996,-1.20975 5.895969,-2.86723 7.718174,-5.56873 2.450486,-3.64008 2.660973,-8.26658 4.974031,-11.97368 0.630056,-0.98194 1.68567,-1.76079 2.892058,-1.74562 1.727321,-0.0784 3.37458,1.04823 4.057573,2.61436 1.83857,3.02903 1.68571,7.00019 0.01175,10.06507 -2.383843,5.67315 -4.242223,11.64459 -7.696118,16.79667 -3.213284,4.37051 -8.403057,7.04475 -13.739394,7.67758 -4.34532,0.68884 -8.869836,0.73431 -12.986688,2.44976 -2.256438,0.96574 -4.151741,3.14076 -4.205272,5.67624 -0.115652,2.46718 1.325493,4.74005 3.16716,6.26944 2.456659,2.26271 5.470699,4.07031 8.804885,4.60509 2.856628,0.42322 3.916001,-2.10316 2.023682,-3.5936 -1.525599,-1.70971 -3.793077,-2.66247 -5.017656,-4.65631 -0.221582,-0.9895 0.715868,-1.77844 1.581858,-2.01446 4.110818,-1.72404 8.629195,-1.82527 12.99484,-2.32826 3.528049,-0.42258 7.106363,-1.39873 9.96945,-3.58731 4.730269,-3.4122 8.001209,-8.54588 9.844895,-14.02271 0.989106,-2.87029 1.551122,-5.95306 3.284951,-8.50694 1.380225,-2.11031 3.620914,-3.61102 6.091089,-4.10726 2.2272,-0.46649 4.666073,-0.21927 6.647326,0.93576 1.105263,1.13763 0.917038,3.02746 0.02023,4.23069 -1.576337,2.99946 -3.218133,6.12822 -3.405341,9.58017 -0.01287,4.22871 2.78007,8.18305 6.565887,9.94311 2.682149,1.4653 5.513587,2.96781 7.340363,5.50611 1.090473,1.66323 0.669635,3.91805 -0.481393,5.43596 -2.052071,3.13562 -5.984247,5.40406 -8.422315,7.1223 -2.800997,1.97401 1.119497,4.65195 4.352934,3.20504 5.927873,-3.67263 13.601551,-6.00314 17.681635,-11.16564 2.88996,-2.57522 -0.74252,-8.54667 -3.2365,-10.56836 -3.117464,-3.0529 -6.445429,-6.01837 -8.673511,-9.82054 -1.111054,-2.74435 0.39532,-6.13747 3.060801,-7.33533 2.667291,-1.62496 5.58471,-2.93572 8.68124,-3.44963 2.63221,-0.27149 5.36833,0.7684 7.11293,2.76818 2.26033,2.27577 3.91656,5.05602 6.05212,7.43995 3.11131,3.78089 6.7205,7.28168 11.12734,9.51119 7.32769,4.01728 15.50373,6.31426 22.57508,10.82463 2.83475,1.85484 5.35086,4.35822 6.70812,7.50487 1.53831,3.30583 1.96687,7.02977 1.70761,10.63925 -1.25862,3.68451 5.39936,4.9428 6.13774,1.22368 1.63206,-3.7778 2.22591,-5.81263 2.84349,-9.94334 0.62603,-4.48072 -0.90162,-9.0644 -3.54672,-12.66385 -2.20911,-2.99679 -5.29055,-5.31282 -8.7374,-6.70169 -7.07986,-3.48103 -14.5927,-6.19716 -21.11775,-10.71401 -2.60989,-1.84176 -5.19026,-3.99312 -6.57155,-6.9455 -1.96817,-4.26744 -0.006,-9.90483 4.22838,-11.97283 2.66258,-1.36301 6.02515,-1.0373 8.46819,0.65 2.29789,1.43597 4.24383,3.35009 6.47225,4.88404 6.24497,4.71078 12.69021,9.31982 19.95317,12.33795 8.9993,3.46068 19.86792,1.67475 27.13417,-4.71494 5.16188,-4.49888 7.66737,-11.76082 6.53453,-18.49599 -0.63152,-4.26606 -2.57452,-8.16498 -4.04564,-12.17657 -2.78708,-7.203 -5.68976,-14.43949 -7.05094,-22.07692 -0.72016,-4.646483 0.0943,-9.42335 1.79926,-13.771342 0.59875,-1.646959 1.23279,-3.282907 1.73124,-4.964179 -0.42316,-0.972381 -2.0764,-0.706026 -2.27343,0.298828 -2.23553,3.550735 -5.02101,6.853703 -6.32227,10.90625 -1.57927,5.361979 -0.94974,11.179763 0.99198,16.360903 2.71676,7.17853 6.02829,14.15725 8.00029,21.59816 0.44781,1.81284 0.87478,3.64687 1.0175,5.51164 0.0714,3.92815 -2.16973,7.77592 -5.58859,9.69877 -3.23859,2.01422 -7.15388,2.58742 -10.90862,2.45325 -7.18022,-0.0908 -14.4216,-2.7316 -19.6239,-7.75184 -4.05747,-3.94377 -6.71295,-9.07255 -8.71554,-14.30508 -2.71212,-6.74207 -1.55409,-10.59774 -1.16216,-18.42493 0.28876,-5.76695 0.52275,-11.441635 0.20866,-17.172529 -0.53822,-9.82059 -0.91846,-19.687058 -2.61817,-29.391619 -1.45128,-7.372288 -4.74799,-14.372546 -9.52957,-20.170802 -6.31929,-7.793475 -15.24465,-13.600646 -25.1333,-15.579997 -2.62908,-0.529639 -10.75146,-0.81938 -15.978876,0.204408 z"
       style="fill:#800080;fill-rule:evenodd;stroke:none;stroke-width:0;stroke-linecap:butt;stroke-linejoin:miter;stroke-miterlimit:4;stroke-dasharray:none;stroke-opacity:1" />
    <path
       d="M 129.11958,69.462044 A 29.150513,15.769755 0 0 1 100.10072,85.231638 29.150513,15.769755 0 0 1 70.819747,69.604476 29.150513,15.769755 0 0 1 99.574147,53.693736 29.150513,15.769755 0 0 1 129.11483,69.177191"
       id="path920"
       style="opacity:0.98000004;fill:#f9f9f9;fill-opacity:1;stroke:none;stroke-width:2.21099997;stroke-linecap:round;stroke-linejoin:bevel;stroke-miterlimit:4;stroke-dasharray:none;stroke-dashoffset:0;stroke-opacity:1;paint-order:markers stroke fill" />
    <ellipse
       ry="9.717783"
       rx="3.9695513"
       cy="69.146477"
       cx="99.476349"
       id="path928"
       style="opacity:0.98000004;fill:#000000;fill-opacity:1;stroke:#060006;stroke-width:0.49347344;stroke-linecap:round;stroke-linejoin:bevel;stroke-miterlimit:4;stroke-dasharray:none;stroke-dashoffset:0;stroke-opacity:1;paint-order:markers stroke fill" />
    <path
       id="path959"
       d="m 115.28398,121.04023 -0.63869,7.34497 -6.38692,-6.38693"
       style="fill:#ffffff;fill-rule:evenodd;stroke:#000000;stroke-width:0.565;stroke-linecap:round;stroke-linejoin:miter;stroke-miterlimit:4;stroke-dasharray:none;stroke-opacity:1" />
    <path
       id="path961"
       d="m 81.992141,119.76285 0.798367,7.6643 3.907888,-7.93489"
       style="fill:#ffffff;fill-rule:evenodd;stroke:#000000;stroke-width:0.465;stroke-linecap:butt;stroke-linejoin:miter;stroke-miterlimit:4;stroke-dasharray:none;stroke-opacity:1" />
    <path
       id="path963"
       d="m 95.644191,121.51925 -3.752318,5.0297 0.319347,-6.30708"
       style="fill:#ffffff;fill-rule:evenodd;stroke:#000000;stroke-width:0.465;stroke-linecap:butt;stroke-linejoin:miter;stroke-miterlimit:4;stroke-dasharray:none;stroke-opacity:1" />
    <path
       d="m 31.651839,20.941954 c -1.12836,1.227146 -3.05373,2.206986 -3.407056,2.913725 -0.353327,0.70674 -1.729768,0.384367 -1.376441,-0.322373 0.353327,-0.706739 2.366235,-1.800657 3.494595,-3.027803 m 1.253908,-0.956315 c 0.97924,-1.090349 1.790171,-1.912467 2.214985,-2.502076 0.424815,-0.589609 1.801256,-0.267235 1.376441,0.322374 -0.424814,0.589609 -1.29877,1.284401 -2.27801,2.37475"
       style="fill:#800080;fill-rule:evenodd;stroke:#000000;stroke-width:0.81660974;stroke-linecap:round;stroke-linejoin:miter;stroke-miterlimit:4;stroke-dasharray:none;stroke-opacity:1"
       id="path993-5" />
    <path
       transform="rotate(-15.487964)"
       d="m 118.38117,97.377602 a 3.9517078,7.4517918 0 0 1 -3.93386,7.451718 3.9517078,7.4517918 0 0 1 -3.96939,-7.384414 3.9517078,7.4517918 0 0 1 3.89801,-7.518412 3.9517078,7.4517918 0 0 1 4.0046,7.316504"
       id="path1194"
       style="opacity:0.98000004;fill:#320032;fill-opacity:1;stroke:none;stroke-width:0.36500001;stroke-linecap:round;stroke-linejoin:bevel;stroke-miterlimit:4;stroke-dasharray:none;stroke-dashoffset:0;stroke-opacity:1;paint-order:markers stroke fill" />
    <path
       transform="rotate(12.372724)"
       d="m 72.118333,41.703514 a 1.1290594,3.5000842 0 0 1 -1.123961,3.500049 1.1290594,3.5000842 0 0 1 -1.134112,-3.468436 1.1290594,3.5000842 0 0 1 1.113717,-3.531376 1.1290594,3.5000842 0 0 1 1.144171,3.43654"
       id="path1196"
       style="opacity:0.98000004;fill:#320032;fill-opacity:1;stroke:none;stroke-width:0.36500001;stroke-linecap:round;stroke-linejoin:bevel;stroke-miterlimit:4;stroke-dasharray:none;stroke-dashoffset:0;stroke-opacity:1;paint-order:markers stroke fill" />
    <path
       transform="rotate(7.7148675)"
       d="m 68.801034,60.506065 a 1.1290594,4.4033318 0 0 1 -1.123961,4.403287 1.1290594,4.4033318 0 0 1 -1.134112,-4.363516 1.1290594,4.4033318 0 0 1 1.113717,-4.442698 1.1290594,4.4033318 0 0 1 1.144171,4.323389"
       id="path1198"
       style="opacity:0.98000004;fill:#320032;fill-opacity:1;stroke:none;stroke-width:0.36500001;stroke-linecap:round;stroke-linejoin:bevel;stroke-miterlimit:4;stroke-dasharray:none;stroke-dashoffset:0;stroke-opacity:1;paint-order:markers stroke fill" />
    <path
       transform="rotate(9.4846306)"
       d="m 73.692144,49.921856 a 0.79034156,2.7097425 0 0 1 -0.786773,2.709715 0.79034156,2.7097425 0 0 1 -0.793878,-2.685241 0.79034156,2.7097425 0 0 1 0.779602,-2.733968 0.79034156,2.7097425 0 0 1 0.80092,2.660547"
       id="path1200"
       style="opacity:0.98000004;fill:#320032;fill-opacity:1;stroke:none;stroke-width:0.36500001;stroke-linecap:round;stroke-linejoin:bevel;stroke-miterlimit:4;stroke-dasharray:none;stroke-dashoffset:0;stroke-opacity:1;paint-order:markers stroke fill" />
    <path
       transform="rotate(-8.9774547)"
       d="m 130.14468,95.056961 a 0.56452972,2.5968366 0 0 1 -0.56198,2.59681 0.56452972,2.5968366 0 0 1 -0.56705,-2.573355 0.56452972,2.5968366 0 0 1 0.55686,-2.620053 0.56452972,2.5968366 0 0 1 0.57208,2.549691"
       id="path1202"
       style="opacity:0.98000004;fill:#320032;fill-opacity:1;stroke:none;stroke-width:0.36500001;stroke-linecap:round;stroke-linejoin:bevel;stroke-miterlimit:4;stroke-dasharray:none;stroke-dashoffset:0;stroke-opacity:1;paint-order:markers stroke fill" />
    <path
       transform="rotate(-13.346956)"
       d="m 122.37346,81.765984 a 1.0161535,2.7097425 0 0 1 -1.01156,2.709714 1.0161535,2.7097425 0 0 1 -1.0207,-2.68524 1.0161535,2.7097425 0 0 1 1.00234,-2.733968 1.0161535,2.7097425 0 0 1 1.02976,2.660547"
       id="path1204"
       style="opacity:0.98000004;fill:#320032;fill-opacity:1;stroke:none;stroke-width:0.36500001;stroke-linecap:round;stroke-linejoin:bevel;stroke-miterlimit:4;stroke-dasharray:none;stroke-dashoffset:0;stroke-opacity:1;paint-order:markers stroke fill" />
    <path
       d="m 102.97021,63.623417 a 1.4677773,2.4839308 0 0 1 -1.46115,2.483905 1.4677773,2.4839308 0 0 1 -1.47434,-2.46147 1.4677773,2.4839308 0 0 1 1.44783,-2.506138 1.4677773,2.4839308 0 0 1 1.48742,2.438835"
       id="path1206"
       style="opacity:0.98000004;fill:#ffffff;fill-opacity:1;stroke:none;stroke-width:0.38769206;stroke-linecap:round;stroke-linejoin:bevel;stroke-miterlimit:4;stroke-dasharray:none;stroke-dashoffset:0;stroke-opacity:1;paint-order:markers stroke fill" />
    <path
       id="path1265"
       d="m 104.29998,54.703855 c -4.01827,0.133668 -8.006172,0.520834 -12.017652,0.653918 -4.16773,0.851893 -8.49126,1.423971 -12.31314,3.414378 -3.057887,0.693583 -4.686117,3.350616 -6.912647,5.227587 -2.00109,0.850911 -2.87824,3.605656 -2.69169,5.967795 3.36933,-2.869292 8.496777,-5.874714 12.668107,-7.587484 5.25793,-2.551639 10.75534,-4.56305 16.39524,-6.081188 2.287912,-0.14929 4.404932,-1.074652 6.678322,-1.25629"
       style="fill:#ffffff;fill-rule:evenodd;stroke:none;stroke-width:0.26458332px;stroke-linecap:butt;stroke-linejoin:miter;stroke-opacity:1" />
    <path
       id="path1265-3"
       d="m 95.1797,84.440869 c 4.01827,-0.133668 8.00617,-0.520834 12.01765,-0.653918 4.16773,-0.851893 8.49126,-1.423971 12.31314,-3.414378 3.05789,-0.693583 4.68612,-3.350617 6.91265,-5.227587 2.00109,-0.850911 2.87824,-3.605656 2.69169,-5.967795 -3.36933,2.869292 -8.49678,5.874713 -12.66811,7.587483 -5.25793,2.55164 -10.75534,4.56305 -16.39524,6.081189 -2.2879,0.14929 -4.40493,1.074652 -6.67832,1.25629"
       style="fill:#ececec;fill-rule:evenodd;stroke:none;stroke-width:0.26458332px;stroke-linecap:butt;stroke-linejoin:miter;stroke-opacity:1" />
    <path
       d="M 129.11959,69.462044 A 29.150515,15.769755 0 0 1 100.10072,85.231638 29.150515,15.769755 0 0 1 70.819745,69.604476 29.150515,15.769755 0 0 1 99.574147,53.693736 29.150515,15.769755 0 0 1 129.11483,69.177191"
       id="path920-0"
       style="opacity:0.98000004;fill:none;fill-opacity:1;stroke:#060006;stroke-width:2.21099997;stroke-linecap:round;stroke-linejoin:bevel;stroke-miterlimit:4;stroke-dasharray:none;stroke-dashoffset:0;stroke-opacity:1;paint-order:markers stroke fill" />
    <path
       id="path852"
       d="m 121.35156,114.97265 c -3.32213,5.29003 -10.29975,7.21465 -16.73045,7.34873 -6.233369,0.80759 -11.68458,-3.49289 -17.922713,-2.82912 -2.825978,-0.14996 -5.702337,-0.12728 -8.458574,0.59002"
       style="fill:none;fill-rule:evenodd;stroke:#000000;stroke-width:1.46500003;stroke-linecap:round;stroke-linejoin:bevel;stroke-miterlimit:4;stroke-dasharray:none;stroke-opacity:1" />
    <path
       transform="rotate(8.7509076)"
       d="m 200.98285,65.222115 a 1.1355639,3.4992011 0 0 1 -1.13043,3.499165 1.1355639,3.4992011 0 0 1 -1.14065,-3.467561 1.1355639,3.4992011 0 0 1 1.12014,-3.530484 1.1355639,3.4992011 0 0 1 1.15076,3.435673"
       id="path1286"
       style="opacity:0.98000004;fill:#3f003f;fill-opacity:1;stroke:#000000;stroke-width:1.21622443;stroke-linecap:round;stroke-linejoin:bevel;stroke-miterlimit:4;stroke-dasharray:none;stroke-dashoffset:0;stroke-opacity:1;paint-order:markers stroke fill" />
    <path
       transform="rotate(-18.161626)"
       d="m 147.42572,157.9953 a 1.1355639,3.4992011 0 0 1 -1.13043,3.49917 1.1355639,3.4992011 0 0 1 -1.14065,-3.46756 1.1355639,3.4992011 0 0 1 1.12014,-3.53049 1.1355639,3.4992011 0 0 1 1.15076,3.43567"
       id="path1286-6"
       style="opacity:0.98000004;fill:#3f003f;fill-opacity:1;stroke:#000000;stroke-width:1.21622443;stroke-linecap:round;stroke-linejoin:bevel;stroke-miterlimit:4;stroke-dasharray:none;stroke-dashoffset:0;stroke-opacity:1;paint-order:markers stroke fill" />
    <path
       transform="rotate(-18.161626)"
       d="m 147.40584,167.80681 a 1.1355639,3.4992011 0 0 1 -1.13043,3.49916 1.1355639,3.4992011 0 0 1 -1.14065,-3.46756 1.1355639,3.4992011 0 0 1 1.12013,-3.53048 1.1355639,3.4992011 0 0 1 1.15077,3.43567"
       id="path1286-6-0"
       style="opacity:0.98000004;fill:#3f003f;fill-opacity:1;stroke:#000000;stroke-width:1.21622443;stroke-linecap:round;stroke-linejoin:bevel;stroke-miterlimit:4;stroke-dasharray:none;stroke-dashoffset:0;stroke-opacity:1;paint-order:markers stroke fill" />
    <path
       transform="matrix(0.6547887,0.75581198,-0.88634695,0.4630217,0,0)"
       d="m 131.00852,108.21934 a 0.96802032,3.2756443 0 0 1 -0.96365,3.27561 0.96802032,3.2756443 0 0 1 -0.97235,-3.24603 0.96802032,3.2756443 0 0 1 0.95486,-3.30493 0.96802032,3.2756443 0 0 1 0.98098,3.21618"
       id="path1286-6-6"
       style="opacity:0.98000004;fill:#3f003f;fill-opacity:1;stroke:#000000;stroke-width:1.08646083;stroke-linecap:round;stroke-linejoin:bevel;stroke-miterlimit:4;stroke-dasharray:none;stroke-dashoffset:0;stroke-opacity:1;paint-order:markers stroke fill" />
    <path
       transform="matrix(0.4947202,0.86905232,-0.94576716,0.32484532,0,0)"
       d="m 138.57509,74.164757 a 0.92827219,3.3838027 0 0 1 -0.92408,3.383768 0.92827219,3.3838027 0 0 1 -0.93242,-3.353206 0.92827219,3.3838027 0 0 1 0.91565,-3.414054 0.92827219,3.3838027 0 0 1 0.9407,3.322369"
       id="path1286-6-6-2"
       style="opacity:0.98000004;fill:#3f003f;fill-opacity:1;stroke:#000000;stroke-width:1.08134353;stroke-linecap:round;stroke-linejoin:bevel;stroke-miterlimit:4;stroke-dasharray:none;stroke-dashoffset:0;stroke-opacity:1;paint-order:markers stroke fill" />
    <path
       id="path1382"
       transform="scale(0.26458333)"
       d="m 523.73975,166.50146 c -10.53837,14.65219 -13.37218,0.20267 -19.82646,34.1464 -12.4293,65.36704 1.94826,247.95813 21.03277,286.6073 10.05818,10.38813 64.37875,46.32095 72.55659,49.43815 0,0 -31.98134,-53.63382 -33.60226,-57.86909 -10.25053,-25.48184 -5.87389,-40.05559 -4.39258,-69.63867 1.09138,-21.79635 1.97618,-43.24229 0.78907,-64.90235 -1.03123,-18.81608 -9.7588,-152.34047 -36.55713,-177.78174 z m -333.18116,188.2212 c 0.99393,17.9718 7.32762,35.04872 11.89649,52.3125 2.95565,13.09851 3.98748,27.10627 0.36328,40.14453 19.13801,-11.41369 25.92428,-32.29289 4.41992,-67.19336 -4.4822,-9.70757 -10.12267,-18.06634 -16.67969,-25.26367 z m 557.26563,125.73437 c -2.65048,22.3009 0.56817,49.43076 -6.74024,66.9375 -46.59586,62.73729 -138.4558,28.24172 -190.29296,-9.43945 -32.79836,-46.91682 -104.73146,-33.42882 -72.10352,26.27734 -0.9901,-13.68782 6.27439,-28.05606 18.79297,-34.16992 10.06329,-5.15153 22.77232,-3.92017 32.00586,2.45703 8.68494,5.42729 16.03856,12.66138 24.46094,18.45899 23.60303,17.80452 47.9635,35.2257 75.41406,46.63281 34.0131,13.07973 75.09169,6.3297 102.55469,-17.82031 19.50946,-17.00365 28.97886,-44.45049 24.69726,-69.90625 -1.51177,-10.21233 -5.01295,-19.86796 -8.78906,-29.42774 z m -541.87278,6.63675 c -13.48637,4.6629 -26.13175,39.38405 -57.09348,66.77996 -30.96173,27.39591 -59.92825,-1.56511 -96.727234,-21.99478 -29.568169,-25.65108 -85.542947,15.016 -111.285023,21.88666 -3.386085,4.63249 -6.328884,9.57791 -8.640625,14.88282 -1.076156,4.16625 5.008627,7.66355 8.052734,4.60742 10.878921,-7.27684 21.431291,-15.13539 33.146485,-21.05859 16.8515224,-9.11044 35.3355269,-15.93176 54.583984,-17.15625 13.145193,0.034 25.398054,5.82902 36.457031,12.43945 18.876881,10.47885 36.795008,23.2085 57.519528,29.90234 8.91743,2.30744 18.10308,-0.70049 26.20313,-4.38281 11.14581,-4.57228 22.2848,-10.83648 29.17187,-21.04688 9.26169,-13.75778 10.05656,-31.24281 18.79883,-45.2539 2.38131,-3.71127 6.37206,-6.65499 10.93164,-6.59766 6.52846,-0.29631 12.75452,3.96163 15.33594,9.88086 1.93369,3.18574 3.26398,6.65161 4.07031,10.23828 2.26616,-11.24034 -7.55282,-22.92982 -20.52512,-33.12692 z m 74.8552,42.80466 c -28.61668,-9.1e-4 -52.87974,68.47406 -70.32226,99.08203 -17.44252,30.60797 -78.08065,25.05247 -93.09571,44.16015 15.26317,-6.11627 31.95311,-6.53878 48.09375,-8.39843 13.33437,-1.59716 26.85856,-5.28484 37.67969,-13.55664 17.87815,-12.89651 30.24074,-32.30017 37.20898,-53 3.73837,-10.84834 5.86296,-22.49989 12.41602,-32.15235 5.21662,-7.97597 13.68541,-13.64788 23.02148,-15.52343 8.41777,-1.76312 17.63482,-0.82836 25.12305,3.53711 0.21839,0.22478 0.41544,0.46161 0.60742,0.70117 0.19153,-0.1358 0.37597,-0.27327 0.57227,-0.40821 -3.91153,-17.41318 -11.76579,-24.4411 -21.30469,-24.4414 z m 114.46289,17.67383 c -25.38011,-0.0214 -48.18912,18.41438 -49.99219,42.56445 2.01699,-5.59191 6.16077,-10.46312 11.60157,-12.9082 10.08109,-6.14159 21.10712,-11.09673 32.81054,-13.03907 9.94851,-1.0261 20.291,2.90467 26.88477,10.46289 8.54298,8.60134 14.80164,19.10902 22.87305,28.11914 11.75928,14.28998 25.40086,27.52273 42.05664,35.94922 27.6952,15.18342 58.5959,23.86504 85.32226,40.91211 10.71402,7.01042 20.22372,16.47043 25.35352,28.36328 0.56437,1.21284 1.07962,2.44478 1.5664,3.68555 1.85764,-3.17333 4.28119,-6.77223 7.35157,-10.82812 C 564.18596,643.31387 479,638.85589 444.32812,576.52539 430.56335,555.94721 412.33773,547.58668 395.26953,547.57227 Z m -103.8457,43.10546 c -1.75903,5.01665 -2.99529,10.18563 -3.28711,15.56641 -0.0488,15.98253 10.50783,30.92984 24.8164,37.58203 7.90084,4.31635 16.1367,8.72599 22.65821,15 10.95695,-7.84202 -32.32385,-38.77175 -44.1875,-68.14844 z m 57.05273,19.25391 c 3.4548,8.73217 9.74102,17.72773 19.58399,26.52344 37.16689,37.59405 -11.87839,63.56388 -42.95899,62.95312 -6.31995,4.97777 -13.02761,9.14717 -18.05664,12.69141 -10.58642,7.46082 4.23034,17.58192 16.45117,12.11328 22.40455,-13.88081 51.40735,-22.68741 66.82813,-42.19922 10.92268,-9.73311 -2.80636,-32.30232 -12.23242,-39.94336 -10.38592,-10.1708 -21.38495,-20.08923 -29.61524,-32.13867 z M 113.5918,685.25781 c 0.61756,6.99068 5.49223,15.36634 16.23632,25.68555 4.08846,-2.71323 4.39161,-8.35474 -0.4746,-12.1875 -4.61209,-5.16869 -11.01382,-8.51243 -15.76172,-13.49805 z m 519.49023,21.43555 c -9.47382,13.16419 -24.78961,22.70532 -34.70508,24.32617 0.61558,5.70741 0.66747,11.48619 0.25782,17.18945 -4.75699,13.92571 20.40653,18.68152 23.19726,4.625 6.16842,-14.27829 8.41389,-21.96989 10.74805,-37.58203 0.39801,-2.84874 0.54596,-5.70739 0.50195,-8.55859 z"
       style="opacity:0.35499998;fill:#1a1a1a;fill-rule:evenodd;stroke:none;stroke-width:0.99999994px;stroke-linecap:butt;stroke-linejoin:miter;stroke-opacity:1" />
    <path
       id="path840-6"
       d="m 94.985092,26.153349 c -8.81084,1.725601 -14.53508,4.915536 -25.07267,9.840669 -6.945577,3.331404 -12.14683,9.896381 -14.116164,17.31052 -1.862277,6.217774 -2.515679,12.70059 -3.411042,19.104999 -0.838775,6.971725 -1.656565,13.95558 -1.992448,20.972266 0.172686,4.928913 1.924394,9.593907 3.173227,14.312717 0.876155,3.88282 1.118352,8.06861 -0.301191,11.85607 -1.192935,2.95122 -3.682706,5.14903 -6.335117,6.78925 -2.547077,1.89796 -3.961384,4.82334 -5.608407,7.45172 -1.775696,2.75235 -3.953553,5.44581 -6.993059,6.84867 -4.424162,2.11397 -9.866831,1.68637 -14.030185,-0.84442 -4.094247,-1.90596 -8.1318,-4.18903 -12.656672,-4.88109 -6.154288,-0.73572 -12.455099,1.47421 -17.148005,5.44347 -3.475527,2.71059 -6.649582,6.00927 -8.43086,10.09689 -0.284733,1.10232 1.325439,2.02735 2.130859,1.21875 2.878381,-1.92533 5.670191,-4.0047 8.769836,-5.57188 4.458632,-2.41047 9.349313,-4.21489 14.442133,-4.53887 3.478,0.009 6.719726,1.54203 9.645747,3.29104 4.994508,2.77253 9.735095,6.14042 15.218458,7.9115 2.359403,0.61051 4.790175,-0.18495 6.933314,-1.15923 2.948995,-1.20975 5.895969,-2.86723 7.718173,-5.56873 2.450487,-3.64008 2.660973,-8.26658 4.974032,-11.97368 0.630055,-0.98194 1.685671,-1.76079 2.892057,-1.74562 1.727322,-0.0784 3.374581,1.04823 4.057574,2.61436 1.838571,3.02903 1.68571,7.00019 0.01175,10.06507 -2.383843,5.67315 -4.242223,11.64459 -7.696118,16.79667 -3.213282,4.37051 -8.403058,7.04475 -13.739394,7.67758 -4.345319,0.68884 -8.869836,0.73431 -12.986687,2.44976 -2.256438,0.96574 -4.151741,3.14076 -4.205274,5.67624 -0.115652,2.46718 1.325493,4.74005 3.16716,6.26944 2.456659,2.26271 5.4707,4.07031 8.804886,4.60509 2.856627,0.42322 3.916,-2.10316 2.023682,-3.5936 -1.525598,-1.70971 -3.793077,-2.66247 -5.017656,-4.65631 -0.221581,-0.9895 0.715867,-1.77844 1.581859,-2.01446 4.110818,-1.72404 8.629195,-1.82527 12.994838,-2.32826 3.52805,-0.42258 7.106365,-1.39873 9.969453,-3.58731 4.730268,-3.4122 8.001209,-8.54588 9.844894,-14.02271 0.989105,-2.87029 1.551122,-5.95306 3.28495,-8.50694 1.380226,-2.11031 3.620916,-3.61102 6.09109,-4.10726 2.227199,-0.46649 4.666072,-0.21927 6.647325,0.93576 1.105263,1.13763 0.917038,3.02746 0.02024,4.23069 -1.576338,2.99946 -3.218133,6.12822 -3.405341,9.58017 -0.01286,4.22871 2.780069,8.18305 6.565883,9.94311 2.68215,1.4653 5.51359,2.96781 7.34037,5.50611 1.09047,1.66323 0.66963,3.91805 -0.4814,5.43596 -2.05207,3.13562 -5.98425,5.40406 -8.42231,7.1223 -2.800998,1.97401 1.1195,4.65195 4.35293,3.20504 5.92787,-3.67263 13.60155,-6.00314 17.681638,-11.16564 2.88996,-2.57522 -0.74252,-8.54667 -3.2365,-10.56836 -3.117468,-3.0529 -6.445428,-6.01837 -8.673518,-9.82054 -1.11105,-2.74435 0.39533,-6.13747 3.06081,-7.33533 2.66729,-1.62496 5.584708,-2.93572 8.681238,-3.44963 2.63221,-0.27149 5.36833,0.7684 7.11293,2.76818 2.26033,2.27577 3.91656,5.05602 6.05212,7.43995 3.11131,3.78089 6.7205,7.28168 11.12734,9.51119 7.32769,4.01728 15.50373,6.31426 22.57508,10.82463 2.83475,1.85484 5.35086,4.35822 6.70812,7.50487 1.53831,3.30583 1.96687,7.02977 1.70761,10.63925 -1.25862,3.68451 5.39936,4.9428 6.13774,1.22368 1.63206,-3.7778 2.22591,-5.81263 2.84349,-9.94334 0.62603,-4.48072 -0.90162,-9.0644 -3.54672,-12.66385 -2.20911,-2.99679 -5.29055,-5.31282 -8.7374,-6.70169 -7.07986,-3.48103 -14.5927,-6.19716 -21.11775,-10.71401 -2.60989,-1.84176 -5.19026,-3.99312 -6.57155,-6.9455 -1.96817,-4.26744 -0.006,-9.90483 4.22838,-11.97283 2.66258,-1.36301 6.02515,-1.0373 8.46819,0.65 2.29789,1.43597 4.24383,3.35009 6.47225,4.88404 6.24497,4.71078 12.69021,9.31982 19.95317,12.33795 8.9993,3.46068 19.86792,1.67475 27.13417,-4.71494 5.16188,-4.49888 7.66737,-11.76082 6.53453,-18.49599 -0.63152,-4.26606 -2.57452,-8.16498 -4.04564,-12.17657 -2.78708,-7.203 -5.68976,-14.43949 -7.05094,-22.07692 -0.72016,-4.646485 0.0943,-9.423352 1.79926,-13.771342 0.59875,-1.64696 1.23279,-3.282908 1.73124,-4.964179 -0.42316,-0.972381 -2.0764,-0.706027 -2.27343,0.298826 -2.23553,3.550737 -5.02101,6.853703 -6.32227,10.906252 -1.57927,5.36198 -0.94974,11.179763 0.99198,16.360903 2.71676,7.17853 6.02829,14.15725 8.00029,21.59816 0.44781,1.81284 0.87478,3.64687 1.0175,5.51164 0.0714,3.92815 -2.16973,7.77592 -5.58859,9.69877 -3.23859,2.01422 -7.15388,2.58742 -10.90862,2.45325 -7.18022,-0.0908 -14.4216,-2.7316 -19.6239,-7.75184 -4.05747,-3.94377 -6.71295,-9.07255 -8.71554,-14.30508 -2.71212,-6.74207 -1.55409,-10.59774 -1.16216,-18.42493 0.28876,-5.76695 0.52275,-11.441636 0.20866,-17.172529 -0.53822,-9.82059 -0.91846,-19.687059 -2.61817,-29.391621 -1.45129,-7.372286 -4.748,-14.372545 -9.52958,-20.170801 -6.31929,-7.793475 -15.24465,-13.600647 -25.1333,-15.579998 -2.62908,-0.529639 -10.75146,-0.81938 -15.978878,0.204408 z"
       style="fill:none;fill-rule:evenodd;stroke:#000000;stroke-width:1.86500001;stroke-linecap:butt;stroke-linejoin:miter;stroke-miterlimit:4;stroke-dasharray:none;stroke-opacity:1" />
    <path
       d="m 130.63749,43.849085 c 8.9639,-8.668319 21.18374,-14.246129 33.36217,-18.870033 5.19266,-1.374669 12.88153,-3.728762 15.55926,-4.028769 2.67771,-0.300006 1.65404,-1.507733 -1.02367,-1.207726 -2.67773,0.300007 -10.36661,2.6541 -15.55926,4.028769 -12.17844,4.623904 -24.39828,10.201713 -33.36217,18.870033"
       style="fill:#800080;fill-rule:evenodd;stroke:#000000;stroke-width:0.74200809;stroke-linecap:round;stroke-linejoin:miter;stroke-miterlimit:4;stroke-dasharray:none;stroke-opacity:1"
       id="path965-5" />
    <path
       d="m 147.47267,31.685406 c 2.53015,3.746663 4.92554,7.380782 6.84807,11.37713 0.78433,1.079049 1.55666,2.856962 1.95961,3.390267 0.40294,0.533305 -0.3307,1.599179 -0.73364,1.065874 -0.40296,-0.533305 -1.17528,-2.311218 -1.95962,-3.390267 -2.02938,-4.218502 -4.44416,-7.873313 -7.13393,-11.824739 m -0.85874,-1.261097 c -0.62969,-0.925079 -0.5133,-0.91189 -1.15777,-1.836644 -2.91234,-4.178906 -9.92095,-7.48167 -11.46392,-9.375973 -1.54299,-1.894303 -0.80933,-2.960178 0.73364,-1.065876 1.54299,1.894305 8.55158,5.197067 11.46393,9.375974 0.78944,1.132769 0.68325,1.169135 1.44916,2.303307"
       style="fill:#800080;fill-rule:evenodd;stroke:#000000;stroke-width:0.74200809;stroke-linecap:round;stroke-linejoin:miter;stroke-miterlimit:4;stroke-dasharray:none;stroke-opacity:1"
       id="path969-6" />
    <path
       d="m 157.58586,25.57334 c -0.67756,-1.225553 -0.8868,-1.409914 -1.85826,-2.477188 -1.95138,-2.733835 -7.28702,-4.392985 -8.9896,-4.853844 -1.70259,-0.460858 -3.01326,0.125987 -1.31066,0.58685 1.70257,0.460858 7.03821,2.120008 8.98957,4.853843 0.92821,1.019743 1.16646,1.244737 1.82477,2.410863 m 2.04324,0.8186 c 0.80623,1.458294 1.32866,2.641904 1.83912,4.180205 0.56099,1.101394 0.58476,3.064817 1.01459,3.495995 0.42983,0.431179 -0.88086,1.018028 -1.31067,0.58685 -0.42983,-0.431179 -0.45359,-2.394602 -1.01459,-3.495995 -0.52955,-1.595878 -1.04547,-2.748539 -1.896,-4.255153"
       style="fill:#800080;fill-rule:evenodd;stroke:#000000;stroke-width:0.74200809;stroke-linecap:round;stroke-linejoin:miter;stroke-miterlimit:4;stroke-dasharray:none;stroke-opacity:1"
       id="path971-9" />
    <path
       d="m 170.55716,22.682108 c 0.21238,0.364275 0.29066,0.419672 0.55056,0.762533 0.55096,1.452867 1.85767,3.431508 1.83993,4.154131 -0.0178,0.722624 -1.07154,0.960185 -1.0538,0.237561 0.0178,-0.722623 -1.28897,-2.701264 -1.83993,-4.154131 -0.21026,-0.277386 -0.31858,-0.390777 -0.49584,-0.683056 m -0.61371,-1.219368 c -0.52775,-0.870556 -0.67821,-1.180425 -0.94305,-1.616223 -0.26485,-0.435798 0.80995,-0.638824 1.0538,-0.237561 0.24385,0.401263 0.37721,0.816968 0.84842,1.625203"
       style="fill:#800080;fill-rule:evenodd;stroke:#000000;stroke-width:0.74200809;stroke-linecap:round;stroke-linejoin:miter;stroke-miterlimit:4;stroke-dasharray:none;stroke-opacity:1"
       id="path973-1" />
    <path
       d="m 53.450186,32.657332 c -0.748235,0.479875 -0.850266,0.963924 -1.37358,1.669594 -1.387183,1.45768 -2.378575,3.125495 -3.807578,4.595075 -1.891844,1.945564 -5.077663,4.495944 -6.009319,5.463014 -0.931655,0.967072 -2.766768,0.301095 -1.835114,-0.665976 0.931654,-0.967071 4.117476,-3.517451 6.009319,-5.463014 1.429002,-1.469581 2.420395,-3.137395 3.807578,-4.595076 0.655636,-0.8841 1.061673,-1.235505 2.042367,-1.791124 m 1.508822,-0.882157 c 1.153898,-0.65375 1.409453,-0.59112 2.595495,-1.177337 2.334383,-1.560556 5.942847,-3.873465 6.796509,-4.951949 0.853664,-1.078485 2.688778,-0.412508 1.835114,0.665976 -0.853662,1.078485 -4.502044,3.271639 -6.836427,4.832195 -1.389481,0.686769 -2.044231,0.700176 -3.336416,1.528911"
       style="fill:#800080;fill-rule:evenodd;stroke:#000000;stroke-width:0.81660974;stroke-linecap:round;stroke-linejoin:miter;stroke-miterlimit:4;stroke-dasharray:none;stroke-opacity:1"
       id="path979-6" />
    <path
       d="m 43.941705,24.977876 c 1.222274,-1.203269 3.475694,-2.982225 3.836148,-3.769944 0.360455,-0.78772 2.096134,-0.241951 1.735679,0.545768 -0.360455,0.787719 -3.116001,2.67318 -4.338275,3.876449 m -2.526386,0.552532 c -1.314095,1.198032 -2.648115,1.778624 -3.936657,3.007856 -0.987344,1.104597 -2.091595,2.972712 -2.489484,3.57715 -0.397889,0.604437 1.337789,1.150205 1.735678,0.545768 0.39789,-0.604437 1.50214,-2.472552 2.489484,-3.57715 1.19575,-1.140708 2.725098,-1.911046 3.97948,-2.988818"
       style="fill:#800080;fill-rule:evenodd;stroke:#000000;stroke-width:0.81660974;stroke-linecap:round;stroke-linejoin:miter;stroke-miterlimit:4;stroke-dasharray:none;stroke-opacity:1"
       id="path981-7" />
    <path
       d="M 66.127292,44.403428 C 60.276051,34.500783 49.464804,27.66437 38.279463,22.755473 33.416549,20.326647 28.2785,18.158909 22.708042,17.329259 c -1.579051,-0.07603 -2.151405,0.608455 -1.19183,1.140835 5.570458,0.82965 10.708507,2.997388 15.571421,5.426214 11.185341,4.908897 21.996589,11.745308 27.847828,21.647955"
       style="fill:#800080;fill-rule:evenodd;stroke:#000000;stroke-width:0.81660974;stroke-linecap:round;stroke-linejoin:miter;stroke-miterlimit:4;stroke-dasharray:none;stroke-opacity:1"
       id="path967-3" />
    <path
       id="path846-7"
       d="M 120.04706,45.894178 C 110.8791,43.566039 103.40725,42.027048 95.012331,42.621142 87.781562,43.13285 76.570716,47.483114 74.061205,48.448943"
       style="fill:none;fill-rule:evenodd;stroke:#a724a7;stroke-width:1.065;stroke-linecap:round;stroke-linejoin:miter;stroke-miterlimit:4;stroke-dasharray:none;stroke-opacity:1;enable-background:new" />
    <path
       id="path1410"
       transform="scale(0.26458333)"
       d="m 402.1528,96.640625 c -6.82296,0.385134 -37.40398,1.080744 -43.15475,2.207031 -33.30082,6.521954 -54.93461,18.578684 -94.76172,37.193364 -26.25101,12.59113 -45.91034,37.40384 -53.35352,65.42578 -7.0385,23.50025 -9.50658,48.00139 -12.89062,72.20703 -1.79894,14.95227 -6.10179,64.26918 -7.53133,79.26527 C 215.94628,287.89251 228.6937,230.55252 263.65625,186.33588 298.6188,142.11925 365.29849,116.42814 402.1528,96.640625 Z M 724.09766,307.31836 c -2.09475,0.0335 -4.25495,1.28557 -4.67383,3.42187 -8.44925,13.42011 -18.97639,25.90399 -23.89453,41.22071 -3.42366,11.6241 -4.09011,23.81449 -2.66016,35.79297 2.59582,-0.4335 5.22432,-1.02899 7.88867,-1.81836 9.38751,-24.81294 18.81204,-51.36633 24.92774,-78.37891 -0.50497,-0.16285 -1.04205,-0.24701 -1.58789,-0.23828 z M 198.13281,458.06641 c -5.0373,8.09858 -12.69812,14.45301 -20.76172,19.43945 -9.62672,7.17339 -14.97034,18.22807 -21.19531,28.16211 -1.08404,1.68028 -2.21409,3.35291 -3.38476,5.00195 23.64929,-7.51543 43.03663,-28.41668 45.34179,-52.60351 z M 20.144531,509.38477 c -20.38324551,-0.059 -40.554372,7.97682 -56.074219,21.10351 -2.222724,1.73352 -4.409381,3.53591 -6.546874,5.40039 27.597815,-6.15559 54.771483,-16.77101 82.115234,-23.52539 -3.516019,-1.03965 -7.092857,-1.88868 -10.757813,-2.44922 -2.907537,-0.34758 -5.824435,-0.52086 -8.736328,-0.52929 z m 279.591799,70.43359 c -1.48637,0.45903 -2.96638,0.9881 -4.44336,1.54883 -0.89638,1.91137 -1.76202,3.83586 -2.54688,5.78906 2.19498,-2.48984 4.52069,-4.93811 6.99024,-7.33789 z m -155.33594,60.2832 c -0.98757,0.15464 -1.97573,0.30435 -2.9668,0.42188 -16.42326,2.60349 -33.52422,2.77617 -49.083981,9.25976 -7.737956,3.3118 -14.332005,10.39126 -15.642578,18.83203 24.022149,-8.50537 58.363689,-11.40876 67.693359,-28.51367 z"
       style="opacity:0.19100001;fill:#ececec;fill-rule:evenodd;stroke:none;stroke-width:0.99999994px;stroke-linecap:butt;stroke-linejoin:miter;stroke-opacity:1" />
    <path
       id="path846-7-9"
       d="M 119.82142,48.662226 C 110.65346,46.334087 103.18161,44.795096 94.786694,45.38919 87.555926,45.900898 76.34508,50.251162 73.835569,51.216991"
       style="fill:none;fill-rule:evenodd;stroke:#000000;stroke-width:1.06500006;stroke-linecap:round;stroke-linejoin:miter;stroke-miterlimit:4;stroke-dasharray:none;stroke-opacity:1;enable-background:new" />
    <path
       id="path846"
       d="m 119.67901,47.293951 c -9.16796,-2.328139 -16.6398,-3.86713 -25.034729,-3.273036 -7.230771,0.511708 -18.441617,4.861972 -20.951128,5.827801"
       style="fill:none;fill-rule:evenodd;stroke:#4c104c;stroke-width:2.46499991;stroke-linecap:round;stroke-linejoin:miter;stroke-miterlimit:4;stroke-dasharray:none;stroke-opacity:1" />
    <path
       d="m 129.11959,69.462044 a 29.150515,15.769755 0 0 1 -8.5798,11.173473 29.150515,15.769755 0 0 1 -20.688854,4.596153"
       id="path920-0-2"
       style="opacity:0.661;fill:none;fill-opacity:1;stroke:#863e86;stroke-width:2.211;stroke-linecap:round;stroke-linejoin:bevel;stroke-miterlimit:4;stroke-dasharray:none;stroke-dashoffset:0;stroke-opacity:1;paint-order:markers stroke fill;enable-background:new" />
    <path
       transform="scale(-1)"
       d="m -77.401918,-79.491158 a 29.150515,15.769755 0 0 1 -0.151064,21.557595 29.150515,15.769755 0 0 1 -39.773428,1.332905"
       id="path920-0-2-0"
       style="opacity:0.66100003;fill:none;fill-opacity:1;stroke:#000000;stroke-width:2.21099997;stroke-linecap:round;stroke-linejoin:bevel;stroke-miterlimit:4;stroke-dasharray:none;stroke-dashoffset:0;stroke-opacity:1;paint-order:markers stroke fill;enable-background:new" />
  </g>
</svg>
